EESchema Schematic File Version 4
LIBS:Inverter-cache
EELAYER 29 0
EELAYER END
$Descr A4 11693 8268
encoding utf-8
Sheet 1 4
Title "unitrac"
Date ""
Rev "r0"
Comp "(C) 2019, Christian Vorobev Private Research"
Comment1 ""
Comment2 ""
Comment3 ""
Comment4 ""
$EndDescr
Entry Wire Line
	3200 1500 3300 1400
Entry Wire Line
	3200 1600 3300 1500
Entry Wire Line
	3200 1700 3300 1600
Entry Wire Line
	3200 1800 3300 1700
Entry Wire Line
	3200 1900 3300 1800
Entry Wire Line
	3200 2000 3300 1900
Entry Wire Line
	3200 2100 3300 2000
Entry Wire Line
	3200 2200 3300 2100
Entry Wire Line
	3200 2300 3300 2200
Wire Wire Line
	3950 1400 3300 1400
Wire Wire Line
	3950 1500 3300 1500
Wire Wire Line
	3300 1600 3950 1600
Wire Wire Line
	3300 1700 3950 1700
Wire Wire Line
	3300 1800 3950 1800
Wire Wire Line
	3950 1900 3300 1900
Wire Wire Line
	3950 2000 3300 2000
Wire Wire Line
	3300 2100 3950 2100
Wire Wire Line
	3950 2200 3300 2200
Text Label 3350 1400 0    50   ~ 0
T_EN
Text Label 3350 1500 0    50   ~ 0
T_FAULT
Text Label 3350 1600 0    50   ~ 0
T_AHI
Text Label 3350 1700 0    50   ~ 0
T_ALI
Text Label 3350 1800 0    50   ~ 0
T_BHI
Text Label 3350 1900 0    50   ~ 0
T_BLI
Text Label 3350 2000 0    50   ~ 0
T_CHI
Text Label 3350 2100 0    50   ~ 0
T_CLI
Text Label 3350 2200 0    50   ~ 0
T_CHOP_EN
Text Label 3350 3550 0    50   ~ 0
T_EN
Text Label 3350 3650 0    50   ~ 0
T_FAULT
Text Label 3350 3750 0    50   ~ 0
T_AHI
Text Label 3350 3850 0    50   ~ 0
T_ALI
Text Label 3350 3950 0    50   ~ 0
T_BHI
Text Label 3350 4050 0    50   ~ 0
T_BLI
Text Label 3350 4150 0    50   ~ 0
T_CHI
Text Label 3350 4250 0    50   ~ 0
T_CLI
Text Label 3350 4350 0    50   ~ 0
T_CHOP_EN
Entry Wire Line
	3200 4250 3300 4350
Entry Wire Line
	3200 4150 3300 4250
Entry Wire Line
	3200 4050 3300 4150
Entry Wire Line
	3200 3950 3300 4050
Entry Wire Line
	3200 3850 3300 3950
Entry Wire Line
	3200 3750 3300 3850
Entry Wire Line
	3200 3650 3300 3750
Entry Wire Line
	3200 3550 3300 3650
Entry Wire Line
	3200 3450 3300 3550
Entry Wire Line
	3300 2800 3400 2700
Entry Wire Line
	3300 2900 3400 2800
Entry Wire Line
	3300 3000 3400 2900
Entry Wire Line
	3300 3100 3400 3000
Wire Wire Line
	3950 2700 3400 2700
Wire Wire Line
	3400 2800 3950 2800
Wire Wire Line
	3950 2900 3400 2900
Wire Wire Line
	3400 3000 3950 3000
Text Notes 4800 3300 0    50   ~ 0
Analog Bus
Text Notes 3200 3300 1    50   ~ 0
Digital Inverter Bus
Wire Wire Line
	3300 4350 3950 4350
Wire Wire Line
	3300 4250 3950 4250
Wire Wire Line
	3300 4150 3950 4150
Wire Wire Line
	3300 4050 3950 4050
Wire Wire Line
	3300 3950 3950 3950
Wire Wire Line
	3300 3850 3950 3850
Wire Wire Line
	3300 3750 3950 3750
Wire Wire Line
	3300 3650 3950 3650
Wire Wire Line
	3300 3550 3950 3550
Text Label 5550 3650 0    50   ~ 0
T_ATOT
Text Label 5550 3950 0    50   ~ 0
T_ACHOP
Text Label 5550 3850 0    50   ~ 0
T_APB
Text Label 5550 3750 0    50   ~ 0
T_APA
Text Label 3450 2700 0    50   ~ 0
T_ATOT
Text Label 3450 3000 0    50   ~ 0
T_ACHOP
Text Label 3450 2900 0    50   ~ 0
T_APB
Text Label 3450 2800 0    50   ~ 0
T_APA
Wire Bus Line
	3300 3300 6150 3300
Entry Wire Line
	6150 3550 6050 3650
Entry Wire Line
	6150 3650 6050 3750
Entry Wire Line
	6150 3750 6050 3850
Entry Wire Line
	6150 3850 6050 3950
Wire Wire Line
	6050 3650 5400 3650
Wire Wire Line
	5400 3750 6050 3750
Wire Wire Line
	6050 3850 5400 3850
Wire Wire Line
	5400 3950 6050 3950
Wire Wire Line
	2500 1250 2500 1000
Wire Wire Line
	2500 1000 3950 1000
Wire Wire Line
	2100 1250 2500 1250
Wire Wire Line
	3950 1100 2600 1100
Wire Wire Line
	2600 1100 2600 1350
Wire Wire Line
	2600 1350 2100 1350
Wire Wire Line
	2100 1450 2700 1450
Wire Wire Line
	2700 1450 2700 1200
Wire Wire Line
	2700 1200 3950 1200
Wire Wire Line
	3950 1300 2800 1300
Wire Wire Line
	2800 1300 2800 1550
Wire Wire Line
	2800 1550 2100 1550
$Sheet
S 1150 1150 950  1300
U 5D532DF7
F0 "Sheet5D532DF6" 50
F1 "power.sch" 50
F2 "PWR_GDRV_VDD" I R 2100 1450 50 
F3 "PWR_GDRV_VSS" I R 2100 1550 50 
F4 "PWR_MCU_VDD" I R 2100 2100 50 
F5 "PWR_MCU_VSS" I R 2100 2200 50 
F6 "PWR_MCU_AVSS" I R 2100 2300 50 
F7 "PWR_TRAC_AVDD" I R 2100 1650 50 
F8 "PWR_TRAC_AVSS" I R 2100 1750 50 
F9 "PWR_MOTOR_NEG" I R 2100 1350 50 
F10 "PWR_MOTOR_POS" I R 2100 1250 50 
$EndSheet
Wire Wire Line
	2100 1650 2800 1650
Wire Wire Line
	2800 1650 2800 2350
Wire Wire Line
	2800 2350 3950 2350
Wire Wire Line
	3950 2450 2700 2450
Wire Wire Line
	2700 2450 2700 1750
Wire Wire Line
	2700 1750 2100 1750
Wire Wire Line
	2600 2100 2600 4600
Wire Wire Line
	2600 4600 5500 4600
Wire Wire Line
	5500 4600 5500 4350
Wire Wire Line
	5500 4350 5400 4350
Wire Wire Line
	2100 2100 2600 2100
Wire Wire Line
	5400 4250 5600 4250
Wire Wire Line
	5600 4250 5600 4700
Wire Wire Line
	5600 4700 2500 4700
Wire Wire Line
	2500 4700 2500 2200
Wire Wire Line
	2500 2200 2100 2200
Wire Wire Line
	2100 2300 2400 2300
Wire Wire Line
	2400 2300 2400 4800
Wire Wire Line
	2400 4800 5700 4800
Wire Wire Line
	5700 4800 5700 4150
Wire Wire Line
	5700 4150 5400 4150
$Sheet
S 3950 900  1050 2250
U 5D532DE2
F0 "Sheet5D532DE1" 50
F1 "traction.sch" 50
F2 "TRAC_AHI" I L 3950 1600 50 
F3 "TRAC_BHI" I L 3950 1800 50 
F4 "TRAC_CHI" I L 3950 2000 50 
F5 "TRAC_ALI" I L 3950 1700 50 
F6 "TRAC_BLI" I L 3950 1900 50 
F7 "TRAC_CLI" I L 3950 2100 50 
F8 "TRAC_FAULT" I L 3950 1500 50 
F9 "TRAC_EN" I L 3950 1400 50 
F10 "TRAC_CHOP_EN" I L 3950 2200 50 
F11 "TRAC_CSENSE_TOT" I L 3950 2700 50 
F12 "TRAC_CSENSE_A" I L 3950 2800 50 
F13 "TRAC_CSENSE_B" I L 3950 2900 50 
F14 "TRAC_CSENSE_CHOP" I L 3950 3000 50 
F15 "TRAC_GDRV_VDD" I L 3950 1200 50 
F16 "TRAC_POWER_POS" I L 3950 1000 50 
F17 "TRAC_POWER_NEG" I L 3950 1100 50 
F18 "TRAC_AVDD" I L 3950 2350 50 
F19 "TRAC_AVSS" I L 3950 2450 50 
F20 "TRAC_GDRV_VSS" I L 3950 1300 50 
$EndSheet
$Sheet
S 3950 3450 1450 1000
U 5D532D68
F0 "Sheet5D532D67" 50
F1 "microcontroller.sch" 50
F2 "MCU_AHO" I L 3950 3750 50 
F3 "MCU_ALO" I L 3950 3850 50 
F4 "MCU_BHO" I L 3950 3950 50 
F5 "MCU_BLO" I L 3950 4050 50 
F6 "MCU_CHO" I L 3950 4150 50 
F7 "MCU_CLO" I L 3950 4250 50 
F8 "MCU_TRAC_FAULT_IN" I L 3950 3650 50 
F9 "MCU_TRAC_EN_OUT" I L 3950 3550 50 
F10 "MCU_TRAC_CHOP_OUT" I L 3950 4350 50 
F11 "MCU_ATOT_IN" I R 5400 3650 50 
F12 "MCU_APA_IN" I R 5400 3750 50 
F13 "MCU_APB_IN" I R 5400 3850 50 
F14 "MCU_ACHOP_IN" I R 5400 3950 50 
F15 "MCU_VSS" I R 5400 4250 50 
F16 "MCU_AVSS" I R 5400 4150 50 
F17 "MCU_AVDD" I R 5400 4350 50 
$EndSheet
Wire Bus Line
	6150 3300 6150 3950
Wire Bus Line
	3300 2700 3300 3300
Wire Bus Line
	3200 1400 3200 4350
$EndSCHEMATC
