(export (version D)
  (design
    (source "/Users/cvorobev/Documents/Hobby/KiCAD projects/Inverter/Inverter.sch")
    (date "2019 August 28, Wednesday 19:01:08")
    (tool "Eeschema (5.1.2-1)-1")
    (sheet (number 1) (name /) (tstamps /)
      (title_block
        (title unitrac)
        (company "(C) 2019, Christian Vorobev Private Research")
        (rev r0)
        (date)
        (source Inverter.sch)
        (comment (number 1) (value ""))
        (comment (number 2) (value ""))
        (comment (number 3) (value ""))
        (comment (number 4) (value ""))))
    (sheet (number 2) (name /Sheet5D532DF6/) (tstamps /5D532DF7/)
      (title_block
        (title unitrac)
        (company "(C) 2019, Christian Vorobev Private Research")
        (rev r0)
        (date)
        (source power.sch)
        (comment (number 1) (value ""))
        (comment (number 2) (value ""))
        (comment (number 3) (value ""))
        (comment (number 4) (value ""))))
    (sheet (number 3) (name /Sheet5D532DE1/) (tstamps /5D532DE2/)
      (title_block
        (title unitrac)
        (company "(C) 2019, Christian Vorobev Private Research")
        (rev r0)
        (date)
        (source traction.sch)
        (comment (number 1) (value ""))
        (comment (number 2) (value ""))
        (comment (number 3) (value ""))
        (comment (number 4) (value ""))))
    (sheet (number 4) (name /Sheet5D532D67/) (tstamps /5D532D68/)
      (title_block
        (title unitrac)
        (company "(C) 2019, Christian Vorobev Private Research")
        (rev r0)
        (date)
        (source microcontroller.sch)
        (comment (number 1) (value ""))
        (comment (number 2) (value ""))
        (comment (number 3) (value ""))
        (comment (number 4) (value "")))))
  (components
    (comp (ref R11)
      (value 1k)
      (footprint Resistor_SMD:R_0603_1608Metric)
      (datasheet ~)
      (libsource (lib Device) (part R_Small) (description "Resistor, small symbol"))
      (sheetpath (names /Sheet5D532DF6/) (tstamps /5D532DF7/))
      (tstamp 5DA55C89))
    (comp (ref Q8)
      (value BC547)
      (footprint Package_TO_SOT_THT:TO-92_Inline)
      (datasheet http://www.fairchildsemi.com/ds/BC/BC547.pdf)
      (libsource (lib Transistor_BJT) (part BC547) (description "0.1A Ic, 45V Vce, Small Signal NPN Transistor, TO-92"))
      (sheetpath (names /Sheet5D532DF6/) (tstamps /5D532DF7/))
      (tstamp 5DA56213))
    (comp (ref Q9)
      (value BC547)
      (footprint Package_TO_SOT_THT:TO-92_Inline)
      (datasheet http://www.fairchildsemi.com/ds/BC/BC547.pdf)
      (libsource (lib Transistor_BJT) (part BC547) (description "0.1A Ic, 45V Vce, Small Signal NPN Transistor, TO-92"))
      (sheetpath (names /Sheet5D532DF6/) (tstamps /5D532DF7/))
      (tstamp 5DA59485))
    (comp (ref R13)
      (value 1k)
      (footprint Resistor_SMD:R_0603_1608Metric)
      (datasheet ~)
      (libsource (lib Device) (part R_Small) (description "Resistor, small symbol"))
      (sheetpath (names /Sheet5D532DF6/) (tstamps /5D532DF7/))
      (tstamp 5DA5AC44))
    (comp (ref C26)
      (value 100uF)
      (footprint Capacitor_SMD:C_1206_3216Metric)
      (datasheet ~)
      (libsource (lib Device) (part C_Small) (description "Unpolarized capacitor, small symbol"))
      (sheetpath (names /Sheet5D532DF6/) (tstamps /5D532DF7/))
      (tstamp 5DA5D34F))
    (comp (ref C24)
      (value 100uF)
      (footprint Capacitor_SMD:C_1206_3216Metric)
      (datasheet ~)
      (libsource (lib Device) (part C_Small) (description "Unpolarized capacitor, small symbol"))
      (sheetpath (names /Sheet5D532DF6/) (tstamps /5D532DF7/))
      (tstamp 5DA5DF4B))
    (comp (ref FB1)
      (value Ferrite_Bead_Small)
      (footprint Inductor_SMD:L_0603_1608Metric)
      (datasheet ~)
      (libsource (lib Device) (part Ferrite_Bead_Small) (description "Ferrite bead, small symbol"))
      (sheetpath (names /Sheet5D532DF6/) (tstamps /5D532DF7/))
      (tstamp 5DA633C4))
    (comp (ref C18)
      (value 2.2uF)
      (footprint Capacitor_SMD:C_0603_1608Metric)
      (datasheet ~)
      (libsource (lib Device) (part C_Small) (description "Unpolarized capacitor, small symbol"))
      (sheetpath (names /Sheet5D532DF6/) (tstamps /5D532DF7/))
      (tstamp 5DA670E6))
    (comp (ref C21)
      (value 2.2uF)
      (footprint Capacitor_SMD:C_0603_1608Metric)
      (datasheet ~)
      (libsource (lib Device) (part C_Small) (description "Unpolarized capacitor, small symbol"))
      (sheetpath (names /Sheet5D532DF6/) (tstamps /5D532DF7/))
      (tstamp 5DA67E04))
    (comp (ref C22)
      (value 2.2uF)
      (footprint Capacitor_SMD:C_0603_1608Metric)
      (datasheet ~)
      (libsource (lib Device) (part C_Small) (description "Unpolarized capacitor, small symbol"))
      (sheetpath (names /Sheet5D532DF6/) (tstamps /5D532DF7/))
      (tstamp 5DA6835D))
    (comp (ref U8)
      (value LM5163-Q1)
      (footprint Package_SO:TI_SO-PowerPAD-8_ThermalVias)
      (libsource (lib Inverter-rescue) (part LM5163-Q1-Regulator_Switching) (description ""))
      (sheetpath (names /Sheet5D532DF6/) (tstamps /5D532DF7/))
      (tstamp 5DA72D4C))
    (comp (ref R12)
      (value 46.4k)
      (footprint Resistor_SMD:R_0603_1608Metric)
      (datasheet ~)
      (libsource (lib Device) (part R_Small) (description "Resistor, small symbol"))
      (sheetpath (names /Sheet5D532DF6/) (tstamps /5D532DF7/))
      (tstamp 5DA7B10E))
    (comp (ref L1)
      (value SRN6045TA-330M)
      (footprint Inductor_SMD:L_Bourns_SRN6045TA)
      (datasheet ~)
      (libsource (lib pspice) (part INDUCTOR) (description "Inductor symbol for simulation only"))
      (sheetpath (names /Sheet5D532DF6/) (tstamps /5D532DF7/))
      (tstamp 5DA82893))
    (comp (ref R14)
      (value 309k)
      (footprint Resistor_SMD:R_0603_1608Metric)
      (datasheet ~)
      (libsource (lib Device) (part R_Small) (description "Resistor, small symbol"))
      (sheetpath (names /Sheet5D532DF6/) (tstamps /5D532DF7/))
      (tstamp 5DA84356))
    (comp (ref C28)
      (value 47pF)
      (footprint Capacitor_SMD:C_0201_0603Metric)
      (datasheet ~)
      (libsource (lib Device) (part C_Small) (description "Unpolarized capacitor, small symbol"))
      (sheetpath (names /Sheet5D532DF6/) (tstamps /5D532DF7/))
      (tstamp 5DA85415))
    (comp (ref C29)
      (value 1.2n)
      (footprint Capacitor_SMD:C_0603_1608Metric)
      (datasheet ~)
      (libsource (lib Device) (part C_Small) (description "Unpolarized capacitor, small symbol"))
      (sheetpath (names /Sheet5D532DF6/) (tstamps /5D532DF7/))
      (tstamp 5DA89D3E))
    (comp (ref R15)
      (value 453k)
      (footprint Resistor_SMD:R_0603_1608Metric)
      (datasheet ~)
      (libsource (lib Device) (part R_Small) (description "Resistor, small symbol"))
      (sheetpath (names /Sheet5D532DF6/) (tstamps /5D532DF7/))
      (tstamp 5DA8D6B3))
    (comp (ref R16)
      (value 49.9k)
      (footprint Resistor_SMD:R_0603_1608Metric)
      (datasheet ~)
      (libsource (lib Device) (part R_Small) (description "Resistor, small symbol"))
      (sheetpath (names /Sheet5D532DF6/) (tstamps /5D532DF7/))
      (tstamp 5DA8E578))
    (comp (ref C31)
      (value 4.7u)
      (footprint Capacitor_SMD:C_0603_1608Metric)
      (datasheet ~)
      (libsource (lib Device) (part C_Small) (description "Unpolarized capacitor, small symbol"))
      (sheetpath (names /Sheet5D532DF6/) (tstamps /5D532DF7/))
      (tstamp 5DA9915E))
    (comp (ref C30)
      (value 4.7u)
      (footprint Capacitor_SMD:C_0603_1608Metric)
      (datasheet ~)
      (libsource (lib Device) (part C_Small) (description "Unpolarized capacitor, small symbol"))
      (sheetpath (names /Sheet5D532DF6/) (tstamps /5D532DF7/))
      (tstamp 5DA996C8))
    (comp (ref C32)
      (value 4.7u)
      (footprint Capacitor_SMD:C_0603_1608Metric)
      (datasheet ~)
      (libsource (lib Device) (part C_Small) (description "Unpolarized capacitor, small symbol"))
      (sheetpath (names /Sheet5D532DF6/) (tstamps /5D532DF7/))
      (tstamp 5DA9ADEB))
    (comp (ref U7)
      (value AMS1117-3.3)
      (footprint Package_TO_SOT_SMD:SOT-223-3_TabPin2)
      (datasheet http://www.advanced-monolithic.com/pdf/ds1117.pdf)
      (libsource (lib Regulator_Linear) (part AMS1117-3.3) (description "1A Low Dropout regulator, positive, 3.3V fixed output, SOT-223"))
      (sheetpath (names /Sheet5D532DF6/) (tstamps /5D532DF7/))
      (tstamp 5DADCB48))
    (comp (ref FB2)
      (value Ferrite_Bead_Small)
      (footprint Inductor_SMD:L_0603_1608Metric)
      (datasheet ~)
      (libsource (lib Device) (part Ferrite_Bead_Small) (description "Ferrite bead, small symbol"))
      (sheetpath (names /Sheet5D532DF6/) (tstamps /5D532DF7/))
      (tstamp 5DADF137))
    (comp (ref C25)
      (value 22u)
      (footprint Capacitor_SMD:C_0805_2012Metric)
      (datasheet ~)
      (libsource (lib Device) (part C_Small) (description "Unpolarized capacitor, small symbol"))
      (sheetpath (names /Sheet5D532DF6/) (tstamps /5D532DF7/))
      (tstamp 5DAF4328))
    (comp (ref C19)
      (value 10u)
      (footprint Capacitor_SMD:C_0603_1608Metric)
      (datasheet ~)
      (libsource (lib Device) (part C_Small) (description "Unpolarized capacitor, small symbol"))
      (sheetpath (names /Sheet5D532DF6/) (tstamps /5D532DF7/))
      (tstamp 5D5A1E4C))
    (comp (ref C20)
      (value 100n)
      (footprint Capacitor_SMD:C_0402_1005Metric)
      (datasheet ~)
      (libsource (lib Device) (part C_Small) (description "Unpolarized capacitor, small symbol"))
      (sheetpath (names /Sheet5D532DF6/) (tstamps /5D532DF7/))
      (tstamp 5D5A2A4C))
    (comp (ref C23)
      (value 100n)
      (footprint Capacitor_SMD:C_0402_1005Metric)
      (datasheet ~)
      (libsource (lib Device) (part C_Small) (description "Unpolarized capacitor, small symbol"))
      (sheetpath (names /Sheet5D532DF6/) (tstamps /5D532DF7/))
      (tstamp 5D9D5809))
    (comp (ref J6)
      (value Conn_01x01)
      (footprint TestPoint:TestPoint_Pad_4.0x4.0mm)
      (datasheet ~)
      (libsource (lib Connector_Generic) (part Conn_01x01) (description "Generic connector, single row, 01x01, script generated (kicad-library-utils/schlib/autogen/connector/)"))
      (sheetpath (names /Sheet5D532DF6/) (tstamps /5D532DF7/))
      (tstamp 5D5B4680))
    (comp (ref J7)
      (value Conn_01x01)
      (footprint TestPoint:TestPoint_Pad_4.0x4.0mm)
      (datasheet ~)
      (libsource (lib Connector_Generic) (part Conn_01x01) (description "Generic connector, single row, 01x01, script generated (kicad-library-utils/schlib/autogen/connector/)"))
      (sheetpath (names /Sheet5D532DF6/) (tstamps /5D532DF7/))
      (tstamp 5D5B533E))
    (comp (ref C27)
      (value "2.2n X7R")
      (footprint Capacitor_SMD:C_0603_1608Metric)
      (datasheet ~)
      (libsource (lib Device) (part C_Small) (description "Unpolarized capacitor, small symbol"))
      (sheetpath (names /Sheet5D532DF6/) (tstamps /5D532DF7/))
      (tstamp 5DA80470))
    (comp (ref NT1)
      (value NT_BAT_LOGIC_POS)
      (footprint NetTie:NetTie-2_SMD_Pad2.0mm)
      (datasheet ~)
      (libsource (lib Device) (part Net-Tie_2) (description "Net tie, 2 pins"))
      (sheetpath (names /Sheet5D532DF6/) (tstamps /5D532DF7/))
      (tstamp 5DECDC37))
    (comp (ref NT10)
      (value NT_BAT_LOGIC_NEG)
      (footprint NetTie:NetTie-2_SMD_Pad2.0mm)
      (datasheet ~)
      (libsource (lib Device) (part Net-Tie_2) (description "Net tie, 2 pins"))
      (sheetpath (names /Sheet5D532DF6/) (tstamps /5D532DF7/))
      (tstamp 5DECE616))
    (comp (ref NT16)
      (value NT_LOGIC_MCUANALOG_POS)
      (footprint NetTie:NetTie-2_SMD_Pad0.5mm)
      (datasheet ~)
      (libsource (lib Device) (part Net-Tie_2) (description "Net tie, 2 pins"))
      (sheetpath (names /Sheet5D532DF6/) (tstamps /5D532DF7/))
      (tstamp 5DF834BD))
    (comp (ref NT17)
      (value NT_LOGIC_MCUANALOG_NEG)
      (footprint NetTie:NetTie-2_SMD_Pad0.5mm)
      (datasheet ~)
      (libsource (lib Device) (part Net-Tie_2) (description "Net tie, 2 pins"))
      (sheetpath (names /Sheet5D532DF6/) (tstamps /5D532DF7/))
      (tstamp 5DF88D0E))
    (comp (ref NT19)
      (value NT_LOGIC_GDRV_NEG)
      (footprint NetTie:NetTie-2_SMD_Pad2.0mm)
      (datasheet ~)
      (libsource (lib Device) (part Net-Tie_2) (description "Net tie, 2 pins"))
      (sheetpath (names /Sheet5D532DF6/) (tstamps /5D532DF7/))
      (tstamp 5DFA5E4A))
    (comp (ref NT13)
      (value NT_MCUANALOG_MCU_POS)
      (footprint NetTie:NetTie-2_SMD_Pad0.5mm)
      (datasheet ~)
      (libsource (lib Device) (part Net-Tie_2) (description "Net tie, 2 pins"))
      (sheetpath (names /Sheet5D532DF6/) (tstamps /5D532DF7/))
      (tstamp 5DFC61C5))
    (comp (ref NT14)
      (value NT_MCUANALOG_MCUA_NEG)
      (footprint NetTie:NetTie-2_SMD_Pad0.5mm)
      (datasheet ~)
      (libsource (lib Device) (part Net-Tie_2) (description "Net tie, 2 pins"))
      (sheetpath (names /Sheet5D532DF6/) (tstamps /5D532DF7/))
      (tstamp 5DFC6993))
    (comp (ref NT15)
      (value NT_MCUANALOG_MCU_NEG)
      (footprint NetTie:NetTie-2_SMD_Pad0.5mm)
      (datasheet ~)
      (libsource (lib Device) (part Net-Tie_2) (description "Net tie, 2 pins"))
      (sheetpath (names /Sheet5D532DF6/) (tstamps /5D532DF7/))
      (tstamp 5DFC6DC0))
    (comp (ref NT11)
      (value NT_MCUANALOG_ANALOG_POS)
      (footprint NetTie:NetTie-2_SMD_Pad0.5mm)
      (datasheet ~)
      (libsource (lib Device) (part Net-Tie_2) (description "Net tie, 2 pins"))
      (sheetpath (names /Sheet5D532DF6/) (tstamps /5D532DF7/))
      (tstamp 5DFE845D))
    (comp (ref NT12)
      (value NT_MCUANALOG_ANALOG_NEG)
      (footprint NetTie:NetTie-2_SMD_Pad0.5mm)
      (datasheet ~)
      (libsource (lib Device) (part Net-Tie_2) (description "Net tie, 2 pins"))
      (sheetpath (names /Sheet5D532DF6/) (tstamps /5D532DF7/))
      (tstamp 5DFE8AD0))
    (comp (ref NT18)
      (value NT_LOGIC_GDRV_POS)
      (footprint NetTie:NetTie-2_SMD_Pad2.0mm)
      (datasheet ~)
      (libsource (lib Device) (part Net-Tie_2) (description "Net tie, 2 pins"))
      (sheetpath (names /Sheet5D532DF6/) (tstamps /5D532DF7/))
      (tstamp 5DFA6EE4))
    (comp (ref U2)
      (value MIC4609)
      (footprint Package_SO:SOIC-28W_7.5x17.9mm_P1.27mm)
      (libsource (lib Inverter-rescue) (part MIC4609-Driver_FET) (description ""))
      (sheetpath (names /Sheet5D532DE1/) (tstamps /5D532DE2/))
      (tstamp 5D53D4F5))
    (comp (ref Q1)
      (value Q_NMOS_GDSD)
      (footprint Package_TO_SOT_THT:TO-220-3_Horizontal_TabDown)
      (datasheet ~)
      (libsource (lib Device) (part Q_NMOS_GDSD) (description "N-MOSFET transistor, gate/drain/source, drain connected to mounting plane"))
      (sheetpath (names /Sheet5D532DE1/) (tstamps /5D532DE2/))
      (tstamp 5D53F158))
    (comp (ref Q2)
      (value Q_NMOS_GDSD)
      (footprint Package_TO_SOT_THT:TO-220-3_Horizontal_TabDown)
      (datasheet ~)
      (libsource (lib Device) (part Q_NMOS_GDSD) (description "N-MOSFET transistor, gate/drain/source, drain connected to mounting plane"))
      (sheetpath (names /Sheet5D532DE1/) (tstamps /5D532DE2/))
      (tstamp 5D54103A))
    (comp (ref Q3)
      (value Q_NMOS_GDSD)
      (footprint Package_TO_SOT_THT:TO-220-3_Horizontal_TabDown)
      (datasheet ~)
      (libsource (lib Device) (part Q_NMOS_GDSD) (description "N-MOSFET transistor, gate/drain/source, drain connected to mounting plane"))
      (sheetpath (names /Sheet5D532DE1/) (tstamps /5D532DE2/))
      (tstamp 5D5422E4))
    (comp (ref Q4)
      (value Q_NMOS_GDSD)
      (footprint Package_TO_SOT_THT:TO-220-3_Horizontal_TabDown)
      (datasheet ~)
      (libsource (lib Device) (part Q_NMOS_GDSD) (description "N-MOSFET transistor, gate/drain/source, drain connected to mounting plane"))
      (sheetpath (names /Sheet5D532DE1/) (tstamps /5D532DE2/))
      (tstamp 5D54313F))
    (comp (ref Q5)
      (value Q_NMOS_GDSD)
      (footprint Package_TO_SOT_THT:TO-220-3_Horizontal_TabDown)
      (datasheet ~)
      (libsource (lib Device) (part Q_NMOS_GDSD) (description "N-MOSFET transistor, gate/drain/source, drain connected to mounting plane"))
      (sheetpath (names /Sheet5D532DE1/) (tstamps /5D532DE2/))
      (tstamp 5D5447AF))
    (comp (ref Q6)
      (value Q_NMOS_GDSD)
      (footprint Package_TO_SOT_THT:TO-220-3_Horizontal_TabDown)
      (datasheet ~)
      (libsource (lib Device) (part Q_NMOS_GDSD) (description "N-MOSFET transistor, gate/drain/source, drain connected to mounting plane"))
      (sheetpath (names /Sheet5D532DE1/) (tstamps /5D532DE2/))
      (tstamp 5D545607))
    (comp (ref C6)
      (value 2u)
      (footprint Capacitor_SMD:C_0603_1608Metric)
      (datasheet ~)
      (libsource (lib Device) (part C_Small) (description "Unpolarized capacitor, small symbol"))
      (sheetpath (names /Sheet5D532DE1/) (tstamps /5D532DE2/))
      (tstamp 5D555A23))
    (comp (ref C5)
      (value 2u)
      (footprint Capacitor_SMD:C_0603_1608Metric)
      (datasheet ~)
      (libsource (lib Device) (part C_Small) (description "Unpolarized capacitor, small symbol"))
      (sheetpath (names /Sheet5D532DE1/) (tstamps /5D532DE2/))
      (tstamp 5D557819))
    (comp (ref C8)
      (value 2u)
      (footprint Capacitor_SMD:C_0603_1608Metric)
      (datasheet ~)
      (libsource (lib Device) (part C_Small) (description "Unpolarized capacitor, small symbol"))
      (sheetpath (names /Sheet5D532DE1/) (tstamps /5D532DE2/))
      (tstamp 5D55C70C))
    (comp (ref D3)
      (value "1A FR")
      (footprint Diode_SMD:DO-214AC)
      (datasheet ~)
      (libsource (lib Device) (part D_Small) (description "Diode, small symbol"))
      (sheetpath (names /Sheet5D532DE1/) (tstamps /5D532DE2/))
      (tstamp 5D56ED0B))
    (comp (ref D2)
      (value "1A FR")
      (footprint Diode_SMD:DO-214AC)
      (datasheet ~)
      (libsource (lib Device) (part D_Small) (description "Diode, small symbol"))
      (sheetpath (names /Sheet5D532DE1/) (tstamps /5D532DE2/))
      (tstamp 5D57033C))
    (comp (ref D1)
      (value "1A FR")
      (footprint Diode_SMD:DO-214AC)
      (datasheet ~)
      (libsource (lib Device) (part D_Small) (description "Diode, small symbol"))
      (sheetpath (names /Sheet5D532DE1/) (tstamps /5D532DE2/))
      (tstamp 5D570BF7))
    (comp (ref C9)
      (value 1u)
      (footprint Capacitor_SMD:C_0603_1608Metric)
      (datasheet ~)
      (libsource (lib Device) (part C_Small) (description "Unpolarized capacitor, small symbol"))
      (sheetpath (names /Sheet5D532DE1/) (tstamps /5D532DE2/))
      (tstamp 5D57967A))
    (comp (ref Q7)
      (value Q_NMOS_GDSD)
      (footprint Package_TO_SOT_THT:TO-220-3_Horizontal_TabDown)
      (datasheet ~)
      (libsource (lib Device) (part Q_NMOS_GDSD) (description "N-MOSFET transistor, gate/drain/source, drain connected to mounting plane"))
      (sheetpath (names /Sheet5D532DE1/) (tstamps /5D532DE2/))
      (tstamp 5D5F3C05))
    (comp (ref U6)
      (value FAN7371)
      (footprint Package_SO:SOIC-8_3.9x4.9mm_P1.27mm)
      (datasheet https://www.fairchildsemi.com/datasheets/FA/FAN7371.pdf)
      (libsource (lib Driver_FET) (part FAN7371) (description "High-Current High-Side Gate Driver, 600V Vs, 4A Io, SOIC-8"))
      (sheetpath (names /Sheet5D532DE1/) (tstamps /5D532DE2/))
      (tstamp 5D60CBD6))
    (comp (ref D4)
      (value D_Small)
      (footprint Diode_SMD:DO-214AC)
      (datasheet ~)
      (libsource (lib Device) (part D_Small) (description "Diode, small symbol"))
      (sheetpath (names /Sheet5D532DE1/) (tstamps /5D532DE2/))
      (tstamp 5D60FC3D))
    (comp (ref C16)
      (value 2u)
      (footprint Capacitor_SMD:C_0603_1608Metric)
      (datasheet ~)
      (libsource (lib Device) (part C_Small) (description "Unpolarized capacitor, small symbol"))
      (sheetpath (names /Sheet5D532DE1/) (tstamps /5D532DE2/))
      (tstamp 5D61BD66))
    (comp (ref R9)
      (value 47k)
      (footprint Resistor_SMD:R_0603_1608Metric)
      (datasheet ~)
      (libsource (lib Device) (part R_Small) (description "Resistor, small symbol"))
      (sheetpath (names /Sheet5D532DE1/) (tstamps /5D532DE2/))
      (tstamp 5D6A17CE))
    (comp (ref R2)
      (value 47k)
      (footprint Resistor_SMD:R_0603_1608Metric)
      (datasheet ~)
      (libsource (lib Device) (part R_Small) (description "Resistor, small symbol"))
      (sheetpath (names /Sheet5D532DE1/) (tstamps /5D532DE2/))
      (tstamp 5D6B1A2F))
    (comp (ref R17)
      (value 47k)
      (footprint Resistor_SMD:R_0603_1608Metric)
      (datasheet ~)
      (libsource (lib Device) (part R_Small) (description "Resistor, small symbol"))
      (sheetpath (names /Sheet5D532DE1/) (tstamps /5D532DE2/))
      (tstamp 5D6B4179))
    (comp (ref R6)
      (value 47k)
      (footprint Resistor_SMD:R_0603_1608Metric)
      (datasheet ~)
      (libsource (lib Device) (part R_Small) (description "Resistor, small symbol"))
      (sheetpath (names /Sheet5D532DE1/) (tstamps /5D532DE2/))
      (tstamp 5D6B55E8))
    (comp (ref R8)
      (value 47k)
      (footprint Resistor_SMD:R_0603_1608Metric)
      (datasheet ~)
      (libsource (lib Device) (part R_Small) (description "Resistor, small symbol"))
      (sheetpath (names /Sheet5D532DE1/) (tstamps /5D532DE2/))
      (tstamp 5D6B5C18))
    (comp (ref R5)
      (value 47k)
      (footprint Resistor_SMD:R_0603_1608Metric)
      (datasheet ~)
      (libsource (lib Device) (part R_Small) (description "Resistor, small symbol"))
      (sheetpath (names /Sheet5D532DE1/) (tstamps /5D532DE2/))
      (tstamp 5D6B64A4))
    (comp (ref R3)
      (value 47k)
      (footprint Resistor_SMD:R_0603_1608Metric)
      (datasheet ~)
      (libsource (lib Device) (part R_Small) (description "Resistor, small symbol"))
      (sheetpath (names /Sheet5D532DE1/) (tstamps /5D532DE2/))
      (tstamp 5D6B6A8B))
    (comp (ref U5)
      (value INA195)
      (footprint Package_TO_SOT_SMD:SOT-23-5)
      (datasheet http://www.ti.com/lit/ds/symlink/ina193.pdf)
      (libsource (lib Amplifier_Current) (part INA195) (description "Current Shunt Monitor −16V to +80V Common-Mode Range, 100V/V, SOT-23-5"))
      (sheetpath (names /Sheet5D532DE1/) (tstamps /5D532DE2/))
      (tstamp 5D85D371))
    (comp (ref U3)
      (value INA195)
      (footprint Package_TO_SOT_SMD:SOT-23-5)
      (datasheet http://www.ti.com/lit/ds/symlink/ina193.pdf)
      (libsource (lib Amplifier_Current) (part INA195) (description "Current Shunt Monitor −16V to +80V Common-Mode Range, 100V/V, SOT-23-5"))
      (sheetpath (names /Sheet5D532DE1/) (tstamps /5D532DE2/))
      (tstamp 5D861B68))
    (comp (ref U1)
      (value INA195)
      (footprint Package_TO_SOT_SMD:SOT-23-5)
      (datasheet http://www.ti.com/lit/ds/symlink/ina193.pdf)
      (libsource (lib Amplifier_Current) (part INA195) (description "Current Shunt Monitor −16V to +80V Common-Mode Range, 100V/V, SOT-23-5"))
      (sheetpath (names /Sheet5D532DE1/) (tstamps /5D532DE2/))
      (tstamp 5D8D7071))
    (comp (ref C1)
      (value 100u)
      (footprint Capacitor_SMD:C_1206_3216Metric)
      (datasheet ~)
      (libsource (lib Device) (part C_Small) (description "Unpolarized capacitor, small symbol"))
      (sheetpath (names /Sheet5D532DE1/) (tstamps /5D532DE2/))
      (tstamp 5D611AC4))
    (comp (ref C2)
      (value 100n)
      (footprint Capacitor_SMD:C_0402_1005Metric)
      (datasheet ~)
      (libsource (lib Device) (part C_Small) (description "Unpolarized capacitor, small symbol"))
      (sheetpath (names /Sheet5D532DE1/) (tstamps /5D532DE2/))
      (tstamp 5D829B98))
    (comp (ref U4)
      (value INA195)
      (footprint Package_TO_SOT_SMD:SOT-23-5)
      (datasheet http://www.ti.com/lit/ds/symlink/ina193.pdf)
      (libsource (lib Amplifier_Current) (part INA195) (description "Current Shunt Monitor −16V to +80V Common-Mode Range, 100V/V, SOT-23-5"))
      (sheetpath (names /Sheet5D532DE1/) (tstamps /5D532DE2/))
      (tstamp 5D860D78))
    (comp (ref C3)
      (value 100n)
      (footprint Capacitor_SMD:C_0402_1005Metric)
      (datasheet ~)
      (libsource (lib Device) (part C_Small) (description "Unpolarized capacitor, small symbol"))
      (sheetpath (names /Sheet5D532DE1/) (tstamps /5D532DE2/))
      (tstamp 5D8CB8C8))
    (comp (ref C7)
      (value 100n)
      (footprint Capacitor_SMD:C_0402_1005Metric)
      (datasheet ~)
      (libsource (lib Device) (part C_Small) (description "Unpolarized capacitor, small symbol"))
      (sheetpath (names /Sheet5D532DE1/) (tstamps /5D532DE2/))
      (tstamp 5D8CC3F3))
    (comp (ref C11)
      (value 100n)
      (footprint Capacitor_SMD:C_0402_1005Metric)
      (datasheet ~)
      (libsource (lib Device) (part C_Small) (description "Unpolarized capacitor, small symbol"))
      (sheetpath (names /Sheet5D532DE1/) (tstamps /5D532DE2/))
      (tstamp 5D8CCAC9))
    (comp (ref C13)
      (value 100n)
      (footprint Capacitor_SMD:C_0402_1005Metric)
      (datasheet ~)
      (libsource (lib Device) (part C_Small) (description "Unpolarized capacitor, small symbol"))
      (sheetpath (names /Sheet5D532DE1/) (tstamps /5D532DE2/))
      (tstamp 5D8CD491))
    (comp (ref C15)
      (value 100n)
      (footprint Capacitor_SMD:C_0402_1005Metric)
      (datasheet ~)
      (libsource (lib Device) (part C_Small) (description "Unpolarized capacitor, small symbol"))
      (sheetpath (names /Sheet5D532DE1/) (tstamps /5D532DE2/))
      (tstamp 5D93EA80))
    (comp (ref C14)
      (value 100u)
      (footprint Capacitor_SMD:C_1206_3216Metric)
      (datasheet ~)
      (libsource (lib Device) (part C_Small) (description "Unpolarized capacitor, small symbol"))
      (sheetpath (names /Sheet5D532DE1/) (tstamps /5D532DE2/))
      (tstamp 5D9400D5))
    (comp (ref C10)
      (value 1u)
      (footprint Capacitor_SMD:C_0603_1608Metric)
      (datasheet ~)
      (libsource (lib Device) (part C_Small) (description "Unpolarized capacitor, small symbol"))
      (sheetpath (names /Sheet5D532DE1/) (tstamps /5D532DE2/))
      (tstamp 5D9D11EC))
    (comp (ref C12)
      (value 1u)
      (footprint Capacitor_SMD:C_0603_1608Metric)
      (datasheet ~)
      (libsource (lib Device) (part C_Small) (description "Unpolarized capacitor, small symbol"))
      (sheetpath (names /Sheet5D532DE1/) (tstamps /5D532DE2/))
      (tstamp 5D9D1EC6))
    (comp (ref C17)
      (value 1u)
      (footprint Capacitor_SMD:C_0603_1608Metric)
      (datasheet ~)
      (libsource (lib Device) (part C_Small) (description "Unpolarized capacitor, small symbol"))
      (sheetpath (names /Sheet5D532DE1/) (tstamps /5D532DE2/))
      (tstamp 5D9D272D))
    (comp (ref J3)
      (value Conn_01x01)
      (footprint TestPoint:TestPoint_Pad_4.0x4.0mm)
      (datasheet ~)
      (libsource (lib Connector_Generic) (part Conn_01x01) (description "Generic connector, single row, 01x01, script generated (kicad-library-utils/schlib/autogen/connector/)"))
      (sheetpath (names /Sheet5D532DE1/) (tstamps /5D532DE2/))
      (tstamp 5D5BF15F))
    (comp (ref J2)
      (value Conn_01x01)
      (footprint TestPoint:TestPoint_Pad_4.0x4.0mm)
      (datasheet ~)
      (libsource (lib Connector_Generic) (part Conn_01x01) (description "Generic connector, single row, 01x01, script generated (kicad-library-utils/schlib/autogen/connector/)"))
      (sheetpath (names /Sheet5D532DE1/) (tstamps /5D532DE2/))
      (tstamp 5D5BFD7E))
    (comp (ref J4)
      (value Conn_01x01)
      (footprint TestPoint:TestPoint_Pad_4.0x4.0mm)
      (datasheet ~)
      (libsource (lib Connector_Generic) (part Conn_01x01) (description "Generic connector, single row, 01x01, script generated (kicad-library-utils/schlib/autogen/connector/)"))
      (sheetpath (names /Sheet5D532DE1/) (tstamps /5D532DE2/))
      (tstamp 5D5C0DC2))
    (comp (ref J5)
      (value Conn_01x01)
      (footprint TestPoint:TestPoint_Pad_4.0x4.0mm)
      (datasheet ~)
      (libsource (lib Connector_Generic) (part Conn_01x01) (description "Generic connector, single row, 01x01, script generated (kicad-library-utils/schlib/autogen/connector/)"))
      (sheetpath (names /Sheet5D532DE1/) (tstamps /5D532DE2/))
      (tstamp 5D5C168B))
    (comp (ref R1)
      (value 500u)
      (footprint Resistor_SMD:R_2512_6332Metric)
      (datasheet ~)
      (libsource (lib Device) (part R) (description Resistor))
      (sheetpath (names /Sheet5D532DE1/) (tstamps /5D532DE2/))
      (tstamp 5D64CE8C))
    (comp (ref R4)
      (value 1m)
      (footprint Resistor_SMD:R_2512_6332Metric)
      (datasheet ~)
      (libsource (lib Device) (part R) (description Resistor))
      (sheetpath (names /Sheet5D532DE1/) (tstamps /5D532DE2/))
      (tstamp 5D6E3596))
    (comp (ref R7)
      (value 1m)
      (footprint Resistor_SMD:R_2512_6332Metric)
      (datasheet ~)
      (libsource (lib Device) (part R) (description Resistor))
      (sheetpath (names /Sheet5D532DE1/) (tstamps /5D532DE2/))
      (tstamp 5D74AE68))
    (comp (ref R10)
      (value 1m)
      (footprint Resistor_SMD:R_2512_6332Metric)
      (datasheet ~)
      (libsource (lib Device) (part R) (description Resistor))
      (sheetpath (names /Sheet5D532DE1/) (tstamps /5D532DE2/))
      (tstamp 5D74B603))
    (comp (ref NT3)
      (value Net-Tie_2)
      (footprint NetTie:NetTie-2_SMD_Pad0.5mm)
      (datasheet ~)
      (libsource (lib Device) (part Net-Tie_2) (description "Net tie, 2 pins"))
      (sheetpath (names /Sheet5D532DE1/) (tstamps /5D532DE2/))
      (tstamp 5DAD635C))
    (comp (ref NT2)
      (value Net-Tie_2)
      (footprint NetTie:NetTie-2_SMD_Pad0.5mm)
      (datasheet ~)
      (libsource (lib Device) (part Net-Tie_2) (description "Net tie, 2 pins"))
      (sheetpath (names /Sheet5D532DE1/) (tstamps /5D532DE2/))
      (tstamp 5DAD6EDA))
    (comp (ref NT4)
      (value Net-Tie_2)
      (footprint NetTie:NetTie-2_SMD_Pad0.5mm)
      (datasheet ~)
      (libsource (lib Device) (part Net-Tie_2) (description "Net tie, 2 pins"))
      (sheetpath (names /Sheet5D532DE1/) (tstamps /5D532DE2/))
      (tstamp 5DB9D6AA))
    (comp (ref NT5)
      (value Net-Tie_2)
      (footprint NetTie:NetTie-2_SMD_Pad0.5mm)
      (datasheet ~)
      (libsource (lib Device) (part Net-Tie_2) (description "Net tie, 2 pins"))
      (sheetpath (names /Sheet5D532DE1/) (tstamps /5D532DE2/))
      (tstamp 5DB9DECF))
    (comp (ref NT7)
      (value Net-Tie_2)
      (footprint NetTie:NetTie-2_SMD_Pad0.5mm)
      (datasheet ~)
      (libsource (lib Device) (part Net-Tie_2) (description "Net tie, 2 pins"))
      (sheetpath (names /Sheet5D532DE1/) (tstamps /5D532DE2/))
      (tstamp 5DC1FE07))
    (comp (ref NT6)
      (value Net-Tie_2)
      (footprint NetTie:NetTie-2_SMD_Pad0.5mm)
      (datasheet ~)
      (libsource (lib Device) (part Net-Tie_2) (description "Net tie, 2 pins"))
      (sheetpath (names /Sheet5D532DE1/) (tstamps /5D532DE2/))
      (tstamp 5DC20473))
    (comp (ref NT9)
      (value Net-Tie_2)
      (footprint NetTie:NetTie-2_SMD_Pad0.5mm)
      (datasheet ~)
      (libsource (lib Device) (part Net-Tie_2) (description "Net tie, 2 pins"))
      (sheetpath (names /Sheet5D532DE1/) (tstamps /5D532DE2/))
      (tstamp 5DD1DF1C))
    (comp (ref NT8)
      (value Net-Tie_2)
      (footprint NetTie:NetTie-2_SMD_Pad0.5mm)
      (datasheet ~)
      (libsource (lib Device) (part Net-Tie_2) (description "Net tie, 2 pins"))
      (sheetpath (names /Sheet5D532DE1/) (tstamps /5D532DE2/))
      (tstamp 5DD1E4F5))
    (comp (ref C4)
      (value 88n)
      (footprint Capacitor_SMD:C_0402_1005Metric)
      (datasheet ~)
      (libsource (lib Device) (part C_Small) (description "Unpolarized capacitor, small symbol"))
      (sheetpath (names /Sheet5D532DE1/) (tstamps /5D532DE2/))
      (tstamp 5D79D5B5))
    (comp (ref J1)
      (value Conn_01x01)
      (footprint TestPoint:TestPoint_Pad_4.0x4.0mm)
      (datasheet ~)
      (libsource (lib Connector_Generic) (part Conn_01x01) (description "Generic connector, single row, 01x01, script generated (kicad-library-utils/schlib/autogen/connector/)"))
      (sheetpath (names /Sheet5D532DE1/) (tstamps /5D532DE2/))
      (tstamp 5D5C0430))
    (comp (ref U9)
      (value NUCLEO64)
      (footprint ST-Morpho64:ST_Morpho_Connector_144_STLink)
      (datasheet http://www.st.com/st-web-ui/static/active/en/resource/technical/document/data_brief/DM00105918.pdf)
      (libsource (lib MCU_Module) (part NUCLEO64-F411RE) (description "Nucleo 64 Development Board with STM32F411RET6 MCU, 128kB RAM, 512KB FLASH"))
      (sheetpath (names /Sheet5D532D67/) (tstamps /5D532D68/))
      (tstamp 5D53391B))
    (comp (ref SW1)
      (value SW_Push)
      (footprint Button_Switch_SMD:SW_Push_1P1T_NO_6x6mm_H9.5mm)
      (datasheet ~)
      (libsource (lib Switch) (part SW_Push) (description "Push button switch, generic, two pins"))
      (sheetpath (names /Sheet5D532D67/) (tstamps /5D532D68/))
      (tstamp 5DA01A75)))
  (libparts
    (libpart (lib Amplifier_Current) (part INA193)
      (aliases
        (alias INA194)
        (alias INA195))
      (description "Current Shunt Monitor −16V to +80V Common-Mode Range, 20V/V, SOT-23-5")
      (docs http://www.ti.com/lit/ds/symlink/ina193.pdf)
      (footprints
        (fp SOT?23*))
      (fields
        (field (name Reference) U)
        (field (name Value) INA193)
        (field (name Footprint) Package_TO_SOT_SMD:SOT-23-5))
      (pins
        (pin (num 1) (name ~) (type output))
        (pin (num 2) (name GND) (type power_in))
        (pin (num 3) (name +) (type input))
        (pin (num 4) (name -) (type input))
        (pin (num 5) (name V+) (type power_in))))
    (libpart (lib Connector_Generic) (part Conn_01x01)
      (description "Generic connector, single row, 01x01, script generated (kicad-library-utils/schlib/autogen/connector/)")
      (docs ~)
      (footprints
        (fp Connector*:*_1x??_*))
      (fields
        (field (name Reference) J)
        (field (name Value) Conn_01x01))
      (pins
        (pin (num 1) (name Pin_1) (type passive))))
    (libpart (lib Device) (part C_Small)
      (description "Unpolarized capacitor, small symbol")
      (docs ~)
      (footprints
        (fp C_*))
      (fields
        (field (name Reference) C)
        (field (name Value) C_Small))
      (pins
        (pin (num 1) (name ~) (type passive))
        (pin (num 2) (name ~) (type passive))))
    (libpart (lib Device) (part D_Small)
      (description "Diode, small symbol")
      (docs ~)
      (footprints
        (fp TO-???*)
        (fp *_Diode_*)
        (fp *SingleDiode*)
        (fp D_*))
      (fields
        (field (name Reference) D)
        (field (name Value) D_Small))
      (pins
        (pin (num 1) (name K) (type passive))
        (pin (num 2) (name A) (type passive))))
    (libpart (lib Device) (part Ferrite_Bead_Small)
      (description "Ferrite bead, small symbol")
      (docs ~)
      (footprints
        (fp Inductor_*)
        (fp L_*)
        (fp *Ferrite*))
      (fields
        (field (name Reference) FB)
        (field (name Value) Ferrite_Bead_Small))
      (pins
        (pin (num 1) (name ~) (type passive))
        (pin (num 2) (name ~) (type passive))))
    (libpart (lib Device) (part Net-Tie_2)
      (description "Net tie, 2 pins")
      (docs ~)
      (footprints
        (fp Net*Tie*))
      (fields
        (field (name Reference) NT)
        (field (name Value) Net-Tie_2))
      (pins
        (pin (num 1) (name 1) (type passive))
        (pin (num 2) (name 2) (type passive))))
    (libpart (lib Device) (part Q_NMOS_GDSD)
      (description "N-MOSFET transistor, gate/drain/source, drain connected to mounting plane")
      (docs ~)
      (fields
        (field (name Reference) Q)
        (field (name Value) Q_NMOS_GDSD))
      (pins
        (pin (num 1) (name G) (type input))
        (pin (num 2) (name D) (type passive))
        (pin (num 3) (name S) (type passive))
        (pin (num 4) (name D) (type passive))))
    (libpart (lib Device) (part R)
      (description Resistor)
      (docs ~)
      (footprints
        (fp R_*))
      (fields
        (field (name Reference) R)
        (field (name Value) R))
      (pins
        (pin (num 1) (name ~) (type passive))
        (pin (num 2) (name ~) (type passive))))
    (libpart (lib Device) (part R_Small)
      (description "Resistor, small symbol")
      (docs ~)
      (footprints
        (fp R_*))
      (fields
        (field (name Reference) R)
        (field (name Value) R_Small))
      (pins
        (pin (num 1) (name ~) (type passive))
        (pin (num 2) (name ~) (type passive))))
    (libpart (lib Driver_FET) (part FAN7371)
      (description "High-Current High-Side Gate Driver, 600V Vs, 4A Io, SOIC-8")
      (docs https://www.fairchildsemi.com/datasheets/FA/FAN7371.pdf)
      (footprints
        (fp SOIC*3.9x4.9mm*P1.27mm*))
      (fields
        (field (name Reference) U)
        (field (name Value) FAN7371)
        (field (name Footprint) Package_SO:SOIC-8_3.9x4.9mm_P1.27mm))
      (pins
        (pin (num 1) (name VDD) (type power_in))
        (pin (num 2) (name IN) (type input))
        (pin (num 3) (name NC) (type NotConnected))
        (pin (num 4) (name GND) (type power_in))
        (pin (num 5) (name NC) (type NotConnected))
        (pin (num 6) (name VS) (type passive))
        (pin (num 7) (name HO) (type output))
        (pin (num 8) (name VB) (type passive))))
    (libpart (lib Inverter-rescue) (part LM5163-Q1-Regulator_Switching)
      (fields
        (field (name Reference) U)
        (field (name Value) LM5163-Q1-Regulator_Switching))
      (pins
        (pin (num 1) (name GND) (type power_in))
        (pin (num 2) (name VIN) (type power_in))
        (pin (num 3) (name UVLO) (type input))
        (pin (num 4) (name RON) (type input))
        (pin (num 5) (name FB) (type input))
        (pin (num 6) (name PGOOD) (type output))
        (pin (num 7) (name BST) (type power_in))
        (pin (num 8) (name SW) (type power_out))))
    (libpart (lib Inverter-rescue) (part MIC4609-Driver_FET)
      (fields
        (field (name Reference) U)
        (field (name Value) MIC4609-Driver_FET))
      (pins
        (pin (num 1) (name VDD) (type power_in))
        (pin (num 2) (name AHI) (type input))
        (pin (num 3) (name BHI) (type input))
        (pin (num 4) (name CHI) (type input))
        (pin (num 5) (name ALI) (type input))
        (pin (num 6) (name BLI) (type input))
        (pin (num 7) (name CLI) (type input))
        (pin (num 8) (name NFAULT) (type output))
        (pin (num 9) (name ISNS) (type input))
        (pin (num 10) (name EN) (type input))
        (pin (num 11) (name RCIN) (type output))
        (pin (num 12) (name VSS) (type power_in))
        (pin (num 13) (name COM) (type input))
        (pin (num 14) (name CLO) (type output))
        (pin (num 15) (name BLO) (type output))
        (pin (num 16) (name ALO) (type output))
        (pin (num 17) (name NC) (type NotConnected))
        (pin (num 18) (name CHS) (type output))
        (pin (num 19) (name CHO) (type output))
        (pin (num 20) (name CHB) (type output))
        (pin (num 21) (name NC) (type NotConnected))
        (pin (num 22) (name BHS) (type output))
        (pin (num 23) (name BHO) (type output))
        (pin (num 24) (name BHB) (type output))
        (pin (num 25) (name NC) (type NotConnected))
        (pin (num 26) (name AHS) (type output))
        (pin (num 27) (name AHO) (type output))
        (pin (num 28) (name AHB) (type output))))
    (libpart (lib MCU_Module) (part NUCLEO64-F411RE)
      (description "Nucleo 64 Development Board with STM32F411RET6 MCU, 128kB RAM, 512KB FLASH")
      (docs http://www.st.com/st-web-ui/static/active/en/resource/technical/document/data_brief/DM00105918.pdf)
      (footprints
        (fp ST*Morpho*Connector*144*STLink*))
      (fields
        (field (name Reference) U)
        (field (name Value) NUCLEO64-F411RE)
        (field (name Footprint) Module:ST_Morpho_Connector_144_STLink))
      (pins
        (pin (num 1) (name PC10) (type BiDi))
        (pin (num 2) (name PC11) (type BiDi))
        (pin (num 3) (name PC12) (type BiDi))
        (pin (num 4) (name PD2) (type BiDi))
        (pin (num 5) (name VDD) (type power_in))
        (pin (num 6) (name E5V) (type power_in))
        (pin (num 7) (name ~BOOT0) (type input))
        (pin (num 8) (name GND) (type power_in))
        (pin (num 9) (name NC) (type NotConnected))
        (pin (num 10) (name NC) (type NotConnected))
        (pin (num 11) (name NC) (type NotConnected))
        (pin (num 12) (name IOREF) (type power_in))
        (pin (num 13) (name STLINK_TMS/PA13) (type BiDi))
        (pin (num 14) (name ~RESET) (type input))
        (pin (num 15) (name STLINK_TCK/PA14) (type BiDi))
        (pin (num 16) (name +3V3) (type power_in))
        (pin (num 17) (name PA15) (type BiDi))
        (pin (num 18) (name +5V) (type power_in))
        (pin (num 19) (name GND) (type power_in))
        (pin (num 20) (name GND) (type power_in))
        (pin (num 21) (name PB7) (type BiDi))
        (pin (num 22) (name GND) (type power_in))
        (pin (num 23) (name PC13) (type BiDi))
        (pin (num 24) (name VIN) (type power_in))
        (pin (num 25) (name PC14) (type BiDi))
        (pin (num 26) (name NC) (type NotConnected))
        (pin (num 27) (name PC15) (type BiDi))
        (pin (num 28) (name PA0) (type BiDi))
        (pin (num 29) (name PH0) (type BiDi))
        (pin (num 30) (name PA1) (type BiDi))
        (pin (num 31) (name PH1) (type BiDi))
        (pin (num 32) (name PA4) (type BiDi))
        (pin (num 33) (name VBAT) (type power_in))
        (pin (num 34) (name PB0) (type BiDi))
        (pin (num 35) (name PC2) (type BiDi))
        (pin (num 36) (name PC1) (type BiDi))
        (pin (num 37) (name PC3) (type BiDi))
        (pin (num 38) (name PC0) (type BiDi))
        (pin (num 39) (name PC9) (type BiDi))
        (pin (num 40) (name PC8) (type BiDi))
        (pin (num 41) (name PB8) (type BiDi))
        (pin (num 42) (name PC6) (type BiDi))
        (pin (num 43) (name PB9) (type BiDi))
        (pin (num 44) (name PC5) (type BiDi))
        (pin (num 45) (name AVDD) (type power_in))
        (pin (num 46) (name U5V) (type power_in))
        (pin (num 47) (name GND) (type power_in))
        (pin (num 48) (name NC) (type NotConnected))
        (pin (num 49) (name PA5) (type BiDi))
        (pin (num 50) (name PA12) (type BiDi))
        (pin (num 51) (name PA6) (type BiDi))
        (pin (num 52) (name PA11) (type BiDi))
        (pin (num 53) (name PA7) (type BiDi))
        (pin (num 54) (name PB12) (type BiDi))
        (pin (num 55) (name PB6) (type BiDi))
        (pin (num 56) (name NC) (type NotConnected))
        (pin (num 57) (name PC7) (type BiDi))
        (pin (num 58) (name GND) (type power_in))
        (pin (num 59) (name PA9) (type BiDi))
        (pin (num 60) (name PB2) (type BiDi))
        (pin (num 61) (name PA8) (type BiDi))
        (pin (num 62) (name PB1) (type BiDi))
        (pin (num 63) (name PB10) (type BiDi))
        (pin (num 64) (name PB15) (type BiDi))
        (pin (num 65) (name PB4) (type BiDi))
        (pin (num 66) (name PB14) (type BiDi))
        (pin (num 67) (name PB5) (type BiDi))
        (pin (num 68) (name PB13) (type BiDi))
        (pin (num 69) (name STLINK_SWO/PB3) (type BiDi))
        (pin (num 70) (name AGND) (type power_in))
        (pin (num 71) (name PA10) (type BiDi))
        (pin (num 72) (name PC4) (type BiDi))
        (pin (num 73) (name STLINK_UART_TX/PA2) (type BiDi))
        (pin (num 74) (name NC) (type NotConnected))
        (pin (num 75) (name STLINK_UART_RX/PA3) (type BiDi))
        (pin (num 76) (name NC) (type NotConnected))
        (pin (num 77) (name GND) (type power_in))
        (pin (num 78) (name GND) (type power_in))
        (pin (num 79) (name GND) (type power_in))
        (pin (num 80) (name GND) (type power_in))))
    (libpart (lib Regulator_Linear) (part AP1117-15)
      (aliases
        (alias AP1117-18)
        (alias AP1117-25)
        (alias AP1117-33)
        (alias AP1117-50)
        (alias LD1117S33TR_SOT223)
        (alias LD1117S12TR_SOT223)
        (alias LD1117S18TR_SOT223)
        (alias LD1117S25TR_SOT223)
        (alias LD1117S50TR_SOT223)
        (alias NCP1117-12_SOT223)
        (alias NCP1117-1.5_SOT223)
        (alias NCP1117-1.8_SOT223)
        (alias NCP1117-2.0_SOT223)
        (alias NCP1117-2.5_SOT223)
        (alias NCP1117-2.85_SOT223)
        (alias NCP1117-3.3_SOT223)
        (alias NCP1117-5.0_SOT223)
        (alias AMS1117-1.5)
        (alias AMS1117-1.8)
        (alias AMS1117-2.5)
        (alias AMS1117-2.85)
        (alias AMS1117-3.3)
        (alias AMS1117-5.0))
      (description "1A Low Dropout regulator, positive, 1.5V fixed output, SOT-223")
      (docs http://www.diodes.com/datasheets/AP1117.pdf)
      (footprints
        (fp SOT?223*TabPin2*))
      (fields
        (field (name Reference) U)
        (field (name Value) AP1117-15)
        (field (name Footprint) Package_TO_SOT_SMD:SOT-223-3_TabPin2))
      (pins
        (pin (num 1) (name GND) (type power_in))
        (pin (num 2) (name VO) (type power_out))
        (pin (num 3) (name VI) (type power_in))))
    (libpart (lib Switch) (part SW_Push)
      (description "Push button switch, generic, two pins")
      (docs ~)
      (fields
        (field (name Reference) SW)
        (field (name Value) SW_Push))
      (pins
        (pin (num 1) (name 1) (type passive))
        (pin (num 2) (name 2) (type passive))))
    (libpart (lib Transistor_BJT) (part BC547)
      (aliases
        (alias BC546)
        (alias BC548)
        (alias BC549)
        (alias BC550)
        (alias BC337)
        (alias BC338))
      (description "0.1A Ic, 45V Vce, Small Signal NPN Transistor, TO-92")
      (docs http://www.fairchildsemi.com/ds/BC/BC547.pdf)
      (footprints
        (fp TO?92*))
      (fields
        (field (name Reference) Q)
        (field (name Value) BC547)
        (field (name Footprint) Package_TO_SOT_THT:TO-92_Inline))
      (pins
        (pin (num 1) (name C) (type passive))
        (pin (num 2) (name B) (type input))
        (pin (num 3) (name E) (type passive))))
    (libpart (lib pspice) (part INDUCTOR)
      (description "Inductor symbol for simulation only")
      (docs ~)
      (fields
        (field (name Reference) L)
        (field (name Value) INDUCTOR))
      (pins
        (pin (num 1) (name 1) (type input))
        (pin (num 2) (name 2) (type input)))))
  (libraries
    (library (logical Amplifier_Current)
      (uri "/Library/Application Support/kicad/library/Amplifier_Current.lib"))
    (library (logical Connector_Generic)
      (uri "/Library/Application Support/kicad/library/Connector_Generic.lib"))
    (library (logical Device)
      (uri "/Library/Application Support/kicad/library/Device.lib"))
    (library (logical Driver_FET)
      (uri "/Library/Application Support/kicad/library/Driver_FET.lib"))
    (library (logical Inverter-rescue)
      (uri "/Users/cvorobev/Documents/Hobby/KiCAD projects/Inverter/Inverter-rescue.lib"))
    (library (logical MCU_Module)
      (uri "/Library/Application Support/kicad/library/MCU_Module.lib"))
    (library (logical Regulator_Linear)
      (uri "/Library/Application Support/kicad/library/Regulator_Linear.lib"))
    (library (logical Switch)
      (uri "/Library/Application Support/kicad/library/Switch.lib"))
    (library (logical Transistor_BJT)
      (uri "/Library/Application Support/kicad/library/Transistor_BJT.lib"))
    (library (logical pspice)
      (uri "/Library/Application Support/kicad/library/pspice.lib")))
  (nets
    (net (code 1) (name /T_EN)
      (node (ref U2) (pin 10))
      (node (ref U9) (pin 30)))
    (net (code 2) (name /T_FAULT)
      (node (ref U9) (pin 28))
      (node (ref U2) (pin 8)))
    (net (code 3) (name /T_AHI)
      (node (ref U9) (pin 61))
      (node (ref U2) (pin 2)))
    (net (code 4) (name /T_ALI)
      (node (ref U2) (pin 5))
      (node (ref U9) (pin 59)))
    (net (code 5) (name /T_BHI)
      (node (ref U9) (pin 71))
      (node (ref U2) (pin 3)))
    (net (code 6) (name /T_BLI)
      (node (ref U9) (pin 52))
      (node (ref U2) (pin 6)))
    (net (code 7) (name /T_CHI)
      (node (ref U2) (pin 4))
      (node (ref U9) (pin 40)))
    (net (code 8) (name /T_CLI)
      (node (ref U9) (pin 39))
      (node (ref U2) (pin 7)))
    (net (code 9) (name /T_CHOP_EN)
      (node (ref U9) (pin 42))
      (node (ref U6) (pin 2)))
    (net (code 10) (name /T_ATOT)
      (node (ref U9) (pin 68))
      (node (ref U1) (pin 1)))
    (net (code 11) (name /T_ACHOP)
      (node (ref U5) (pin 1))
      (node (ref U9) (pin 54)))
    (net (code 12) (name /T_APB)
      (node (ref U4) (pin 1))
      (node (ref U9) (pin 36)))
    (net (code 13) (name /T_APA)
      (node (ref U9) (pin 38))
      (node (ref U3) (pin 1)))
    (net (code 14) (name /Sheet5D532DF6/PWR_MOTOR_POS)
      (node (ref Q7) (pin 4))
      (node (ref Q7) (pin 2))
      (node (ref Q5) (pin 4))
      (node (ref Q5) (pin 2))
      (node (ref Q3) (pin 4))
      (node (ref Q3) (pin 2))
      (node (ref J6) (pin 1))
      (node (ref NT1) (pin 1))
      (node (ref Q1) (pin 4))
      (node (ref Q1) (pin 2)))
    (net (code 15) (name /Sheet5D532DF6/PWR_MOTOR_NEG)
      (node (ref NT3) (pin 2))
      (node (ref R1) (pin 1))
      (node (ref J7) (pin 1))
      (node (ref C9) (pin 2))
      (node (ref NT10) (pin 2)))
    (net (code 16) (name /Sheet5D532DF6/PWR_GDRV_VDD)
      (node (ref D1) (pin 2))
      (node (ref D2) (pin 2))
      (node (ref D3) (pin 2))
      (node (ref U2) (pin 1))
      (node (ref NT18) (pin 2))
      (node (ref C2) (pin 1))
      (node (ref U6) (pin 1))
      (node (ref D4) (pin 2))
      (node (ref C1) (pin 1))
      (node (ref C15) (pin 1))
      (node (ref C14) (pin 1)))
    (net (code 17) (name /Sheet5D532DF6/PWR_GDRV_VSS)
      (node (ref C14) (pin 2))
      (node (ref U2) (pin 12))
      (node (ref C15) (pin 2))
      (node (ref NT19) (pin 1))
      (node (ref C2) (pin 2))
      (node (ref U6) (pin 4))
      (node (ref C4) (pin 2))
      (node (ref C1) (pin 2)))
    (net (code 18) (name /Sheet5D532D67/MCU_AVSS)
      (node (ref U9) (pin 70))
      (node (ref NT14) (pin 2)))
    (net (code 19) (name /Sheet5D532DF6/PWR_TRAC_AVDD)
      (node (ref C11) (pin 1))
      (node (ref C7) (pin 1))
      (node (ref U3) (pin 2))
      (node (ref U5) (pin 2))
      (node (ref NT11) (pin 2))
      (node (ref C3) (pin 1))
      (node (ref C13) (pin 1))
      (node (ref U4) (pin 2))
      (node (ref U1) (pin 2)))
    (net (code 20) (name /Sheet5D532DF6/PWR_TRAC_AVSS)
      (node (ref U4) (pin 5))
      (node (ref C13) (pin 2))
      (node (ref U1) (pin 5))
      (node (ref C3) (pin 2))
      (node (ref NT12) (pin 2))
      (node (ref U3) (pin 5))
      (node (ref U5) (pin 5))
      (node (ref C7) (pin 2))
      (node (ref C11) (pin 2)))
    (net (code 21) (name /Sheet5D532D67/MCU_AVDD)
      (node (ref U9) (pin 45))
      (node (ref NT13) (pin 2)))
    (net (code 22) (name /Sheet5D532D67/MCU_VSS)
      (node (ref U9) (pin 47))
      (node (ref U9) (pin 77))
      (node (ref U9) (pin 78))
      (node (ref U9) (pin 79))
      (node (ref U9) (pin 8))
      (node (ref U9) (pin 80))
      (node (ref NT15) (pin 2))
      (node (ref SW1) (pin 1))
      (node (ref U9) (pin 58))
      (node (ref U9) (pin 22))
      (node (ref U9) (pin 20))
      (node (ref U9) (pin 19)))
    (net (code 23) (name "Net-(U9-Pad46)")
      (node (ref U9) (pin 46)))
    (net (code 24) (name "Net-(U9-Pad33)")
      (node (ref U9) (pin 33)))
    (net (code 25) (name "Net-(U9-Pad24)")
      (node (ref U9) (pin 24)))
    (net (code 26) (name "Net-(U9-Pad18)")
      (node (ref U9) (pin 18)))
    (net (code 27) (name "Net-(U9-Pad16)")
      (node (ref U9) (pin 16)))
    (net (code 28) (name "Net-(U9-Pad12)")
      (node (ref U9) (pin 12)))
    (net (code 29) (name "Net-(U9-Pad6)")
      (node (ref U9) (pin 6)))
    (net (code 30) (name "Net-(U9-Pad5)")
      (node (ref U9) (pin 5)))
    (net (code 31) (name "Net-(U9-Pad7)")
      (node (ref U9) (pin 7)))
    (net (code 32) (name "Net-(U9-Pad29)")
      (node (ref U9) (pin 29)))
    (net (code 33) (name "Net-(U9-Pad31)")
      (node (ref U9) (pin 31)))
    (net (code 34) (name "Net-(U9-Pad4)")
      (node (ref U9) (pin 4)))
    (net (code 35) (name "Net-(U9-Pad35)")
      (node (ref U9) (pin 35)))
    (net (code 36) (name "Net-(U9-Pad37)")
      (node (ref U9) (pin 37)))
    (net (code 37) (name "Net-(U9-Pad72)")
      (node (ref U9) (pin 72)))
    (net (code 38) (name "Net-(U9-Pad44)")
      (node (ref U9) (pin 44)))
    (net (code 39) (name "Net-(U9-Pad57)")
      (node (ref U9) (pin 57)))
    (net (code 40) (name "Net-(U9-Pad1)")
      (node (ref U9) (pin 1)))
    (net (code 41) (name "Net-(U9-Pad2)")
      (node (ref U9) (pin 2)))
    (net (code 42) (name "Net-(U9-Pad3)")
      (node (ref U9) (pin 3)))
    (net (code 43) (name "Net-(U9-Pad23)")
      (node (ref U9) (pin 23)))
    (net (code 44) (name "Net-(U9-Pad25)")
      (node (ref U9) (pin 25)))
    (net (code 45) (name "Net-(U9-Pad27)")
      (node (ref U9) (pin 27)))
    (net (code 46) (name "Net-(U9-Pad66)")
      (node (ref U9) (pin 66)))
    (net (code 47) (name "Net-(U9-Pad63)")
      (node (ref U9) (pin 63)))
    (net (code 48) (name "Net-(U9-Pad43)")
      (node (ref U9) (pin 43)))
    (net (code 49) (name "Net-(U9-Pad41)")
      (node (ref U9) (pin 41)))
    (net (code 50) (name "Net-(U9-Pad21)")
      (node (ref U9) (pin 21)))
    (net (code 51) (name "Net-(U9-Pad55)")
      (node (ref U9) (pin 55)))
    (net (code 52) (name "Net-(U9-Pad67)")
      (node (ref U9) (pin 67)))
    (net (code 53) (name "Net-(U9-Pad65)")
      (node (ref U9) (pin 65)))
    (net (code 54) (name "Net-(U9-Pad69)")
      (node (ref U9) (pin 69)))
    (net (code 55) (name "Net-(U9-Pad60)")
      (node (ref U9) (pin 60)))
    (net (code 56) (name "Net-(U9-Pad62)")
      (node (ref U9) (pin 62)))
    (net (code 57) (name "Net-(U9-Pad34)")
      (node (ref U9) (pin 34)))
    (net (code 58) (name "Net-(U9-Pad17)")
      (node (ref U9) (pin 17)))
    (net (code 59) (name "Net-(U9-Pad15)")
      (node (ref U9) (pin 15)))
    (net (code 60) (name "Net-(U9-Pad13)")
      (node (ref U9) (pin 13)))
    (net (code 61) (name "Net-(U9-Pad50)")
      (node (ref U9) (pin 50)))
    (net (code 62) (name "Net-(U9-Pad53)")
      (node (ref U9) (pin 53)))
    (net (code 63) (name "Net-(U9-Pad51)")
      (node (ref U9) (pin 51)))
    (net (code 64) (name "Net-(U9-Pad49)")
      (node (ref U9) (pin 49)))
    (net (code 65) (name "Net-(U9-Pad32)")
      (node (ref U9) (pin 32)))
    (net (code 66) (name "Net-(U9-Pad75)")
      (node (ref U9) (pin 75)))
    (net (code 67) (name "Net-(U9-Pad73)")
      (node (ref U9) (pin 73)))
    (net (code 68) (name "Net-(SW1-Pad2)")
      (node (ref U9) (pin 14))
      (node (ref SW1) (pin 2)))
    (net (code 69) (name "Net-(U9-Pad9)")
      (node (ref U9) (pin 9)))
    (net (code 70) (name "Net-(U9-Pad76)")
      (node (ref U9) (pin 76)))
    (net (code 71) (name "Net-(U9-Pad74)")
      (node (ref U9) (pin 74)))
    (net (code 72) (name "Net-(U9-Pad64)")
      (node (ref U9) (pin 64)))
    (net (code 73) (name "Net-(U9-Pad56)")
      (node (ref U9) (pin 56)))
    (net (code 74) (name "Net-(U9-Pad48)")
      (node (ref U9) (pin 48)))
    (net (code 75) (name "Net-(U9-Pad26)")
      (node (ref U9) (pin 26)))
    (net (code 76) (name "Net-(U9-Pad11)")
      (node (ref U9) (pin 11)))
    (net (code 77) (name "Net-(U9-Pad10)")
      (node (ref U9) (pin 10)))
    (net (code 78) (name "Net-(C4-Pad1)")
      (node (ref U2) (pin 11))
      (node (ref C4) (pin 1)))
    (net (code 79) (name /Sheet5D532DE1/ANET_PB_NEG)
      (node (ref U4) (pin 4))
      (node (ref NT7) (pin 2)))
    (net (code 80) (name /Sheet5D532DE1/ANET_PB_POS)
      (node (ref NT6) (pin 2))
      (node (ref U4) (pin 3)))
    (net (code 81) (name "Net-(U2-Pad17)")
      (node (ref U2) (pin 17)))
    (net (code 82) (name "Net-(U2-Pad21)")
      (node (ref U2) (pin 21)))
    (net (code 83) (name "Net-(U2-Pad25)")
      (node (ref U2) (pin 25)))
    (net (code 84) (name "Net-(C10-Pad1)")
      (node (ref C9) (pin 1))
      (node (ref R10) (pin 2))
      (node (ref R7) (pin 2))
      (node (ref R4) (pin 2))
      (node (ref NT9) (pin 1))
      (node (ref R1) (pin 2))
      (node (ref U2) (pin 13))
      (node (ref U2) (pin 9))
      (node (ref C17) (pin 2))
      (node (ref C12) (pin 2))
      (node (ref C10) (pin 1))
      (node (ref NT5) (pin 1))
      (node (ref Q6) (pin 3))
      (node (ref NT2) (pin 2))
      (node (ref NT7) (pin 1))
      (node (ref R17) (pin 2)))
    (net (code 85) (name "Net-(C8-Pad1)")
      (node (ref D3) (pin 1))
      (node (ref U2) (pin 20))
      (node (ref C8) (pin 1)))
    (net (code 86) (name "Net-(C6-Pad2)")
      (node (ref D2) (pin 1))
      (node (ref U2) (pin 24))
      (node (ref C6) (pin 2)))
    (net (code 87) (name "Net-(C5-Pad1)")
      (node (ref D1) (pin 1))
      (node (ref C5) (pin 1))
      (node (ref U2) (pin 28)))
    (net (code 88) (name "Net-(C17-Pad1)")
      (node (ref NT8) (pin 1))
      (node (ref C17) (pin 1))
      (node (ref R10) (pin 1))
      (node (ref J5) (pin 1)))
    (net (code 89) (name "Net-(U6-Pad3)")
      (node (ref U6) (pin 3)))
    (net (code 90) (name "Net-(U6-Pad5)")
      (node (ref U6) (pin 5)))
    (net (code 91) (name "Net-(C16-Pad1)")
      (node (ref C16) (pin 1))
      (node (ref D4) (pin 1))
      (node (ref U6) (pin 8)))
    (net (code 92) (name "Net-(Q7-Pad1)")
      (node (ref R9) (pin 1))
      (node (ref U6) (pin 7))
      (node (ref Q7) (pin 1)))
    (net (code 93) (name "Net-(C16-Pad2)")
      (node (ref R9) (pin 2))
      (node (ref U6) (pin 6))
      (node (ref Q7) (pin 3))
      (node (ref C16) (pin 2))
      (node (ref J4) (pin 1)))
    (net (code 94) (name "Net-(Q2-Pad1)")
      (node (ref Q2) (pin 1))
      (node (ref R2) (pin 1))
      (node (ref U2) (pin 16)))
    (net (code 95) (name "Net-(C10-Pad2)")
      (node (ref Q2) (pin 3))
      (node (ref R4) (pin 1))
      (node (ref NT4) (pin 1))
      (node (ref C10) (pin 2))
      (node (ref R2) (pin 2)))
    (net (code 96) (name "Net-(Q6-Pad1)")
      (node (ref Q6) (pin 1))
      (node (ref R17) (pin 1))
      (node (ref U2) (pin 14)))
    (net (code 97) (name "Net-(C12-Pad1)")
      (node (ref R6) (pin 1))
      (node (ref NT6) (pin 1))
      (node (ref C12) (pin 1))
      (node (ref R7) (pin 1))
      (node (ref Q4) (pin 3)))
    (net (code 98) (name "Net-(Q4-Pad1)")
      (node (ref U2) (pin 15))
      (node (ref R6) (pin 2))
      (node (ref Q4) (pin 1)))
    (net (code 99) (name "Net-(C8-Pad2)")
      (node (ref R8) (pin 1))
      (node (ref U2) (pin 18))
      (node (ref Q6) (pin 4))
      (node (ref C8) (pin 2))
      (node (ref Q6) (pin 2))
      (node (ref Q5) (pin 3))
      (node (ref J3) (pin 1)))
    (net (code 100) (name "Net-(Q5-Pad1)")
      (node (ref Q5) (pin 1))
      (node (ref U2) (pin 19))
      (node (ref R8) (pin 2)))
    (net (code 101) (name "Net-(C6-Pad1)")
      (node (ref C6) (pin 1))
      (node (ref Q4) (pin 2))
      (node (ref R5) (pin 1))
      (node (ref Q3) (pin 3))
      (node (ref J2) (pin 1))
      (node (ref U2) (pin 22))
      (node (ref Q4) (pin 4)))
    (net (code 102) (name "Net-(Q3-Pad1)")
      (node (ref R5) (pin 2))
      (node (ref Q3) (pin 1))
      (node (ref U2) (pin 23)))
    (net (code 103) (name "Net-(C5-Pad2)")
      (node (ref C5) (pin 2))
      (node (ref U2) (pin 26))
      (node (ref Q2) (pin 4))
      (node (ref Q2) (pin 2))
      (node (ref Q1) (pin 3))
      (node (ref R3) (pin 1))
      (node (ref J1) (pin 1)))
    (net (code 104) (name "Net-(Q1-Pad1)")
      (node (ref R3) (pin 2))
      (node (ref Q1) (pin 1))
      (node (ref U2) (pin 27)))
    (net (code 105) (name /Sheet5D532DE1/ANET_PRSH_POS)
      (node (ref U5) (pin 3))
      (node (ref NT8) (pin 2)))
    (net (code 106) (name /Sheet5D532DE1/ANET_PRSH_NEG)
      (node (ref U5) (pin 4))
      (node (ref NT9) (pin 2)))
    (net (code 107) (name /Sheet5D532DE1/ANET_PA_POS)
      (node (ref NT4) (pin 2))
      (node (ref U3) (pin 3)))
    (net (code 108) (name /Sheet5D532DE1/ANET_PA_NEG)
      (node (ref NT5) (pin 2))
      (node (ref U3) (pin 4)))
    (net (code 109) (name /Sheet5D532DE1/ANET_PTOT_POS)
      (node (ref NT2) (pin 1))
      (node (ref U1) (pin 3)))
    (net (code 110) (name /Sheet5D532DE1/ANET_PTOT_NEG)
      (node (ref U1) (pin 4))
      (node (ref NT3) (pin 1)))
    (net (code 111) (name "Net-(NT11-Pad1)")
      (node (ref NT11) (pin 1))
      (node (ref Q9) (pin 3)))
    (net (code 112) (name "Net-(FB2-Pad1)")
      (node (ref NT14) (pin 1))
      (node (ref FB2) (pin 1)))
    (net (code 113) (name /Sheet5D532DF6/ANALOG_SECTION_NEG)
      (node (ref C20) (pin 2))
      (node (ref NT17) (pin 1))
      (node (ref C19) (pin 2))
      (node (ref NT15) (pin 1))
      (node (ref FB1) (pin 2))
      (node (ref C25) (pin 2))
      (node (ref U7) (pin 1))
      (node (ref FB2) (pin 2)))
    (net (code 114) (name "Net-(C25-Pad1)")
      (node (ref NT13) (pin 1))
      (node (ref C25) (pin 1))
      (node (ref U7) (pin 2)))
    (net (code 115) (name /Sheet5D532DF6/ANALOG_SECTION_POS)
      (node (ref C20) (pin 1))
      (node (ref U7) (pin 3))
      (node (ref R11) (pin 1))
      (node (ref C19) (pin 1))
      (node (ref NT16) (pin 2))
      (node (ref Q8) (pin 1)))
    (net (code 116) (name "Net-(C27-Pad2)")
      (node (ref U8) (pin 7))
      (node (ref C27) (pin 2)))
    (net (code 117) (name "Net-(C24-Pad2)")
      (node (ref C26) (pin 2))
      (node (ref C24) (pin 2))
      (node (ref FB1) (pin 1))
      (node (ref NT12) (pin 1)))
    (net (code 118) (name "Net-(U8-Pad6)")
      (node (ref U8) (pin 6)))
    (net (code 119) (name "Net-(C29-Pad1)")
      (node (ref L1) (pin 2))
      (node (ref C32) (pin 1))
      (node (ref NT16) (pin 1))
      (node (ref C29) (pin 1))
      (node (ref NT18) (pin 1))
      (node (ref C31) (pin 1))
      (node (ref R15) (pin 1))
      (node (ref C30) (pin 1)))
    (net (code 120) (name "Net-(C28-Pad2)")
      (node (ref R14) (pin 2))
      (node (ref C28) (pin 2))
      (node (ref C29) (pin 2)))
    (net (code 121) (name "Net-(C28-Pad1)")
      (node (ref R16) (pin 1))
      (node (ref C28) (pin 1))
      (node (ref R15) (pin 2))
      (node (ref U8) (pin 5)))
    (net (code 122) (name "Net-(C27-Pad1)")
      (node (ref R14) (pin 1))
      (node (ref L1) (pin 1))
      (node (ref U8) (pin 8))
      (node (ref C27) (pin 1)))
    (net (code 123) (name "Net-(R12-Pad1)")
      (node (ref R12) (pin 1))
      (node (ref U8) (pin 4)))
    (net (code 124) (name "Net-(C18-Pad1)")
      (node (ref C23) (pin 2))
      (node (ref C18) (pin 1))
      (node (ref C21) (pin 1))
      (node (ref C22) (pin 1))
      (node (ref U8) (pin 2))
      (node (ref U8) (pin 3))
      (node (ref NT1) (pin 2)))
    (net (code 125) (name "Net-(C18-Pad2)")
      (node (ref R12) (pin 2))
      (node (ref R16) (pin 2))
      (node (ref NT10) (pin 1))
      (node (ref U8) (pin 1))
      (node (ref C22) (pin 2))
      (node (ref C21) (pin 2))
      (node (ref C18) (pin 2))
      (node (ref C30) (pin 2))
      (node (ref C31) (pin 2))
      (node (ref C32) (pin 2))
      (node (ref NT19) (pin 2))
      (node (ref NT17) (pin 2))
      (node (ref C23) (pin 1)))
    (net (code 126) (name "Net-(C24-Pad1)")
      (node (ref C24) (pin 1))
      (node (ref Q8) (pin 2))
      (node (ref R11) (pin 2)))
    (net (code 127) (name "Net-(C26-Pad1)")
      (node (ref C26) (pin 1))
      (node (ref R13) (pin 2))
      (node (ref Q9) (pin 2)))
    (net (code 128) (name "Net-(Q8-Pad3)")
      (node (ref R13) (pin 1))
      (node (ref Q9) (pin 1))
      (node (ref Q8) (pin 3)))))