EESchema Schematic File Version 4
LIBS:Inverter-cache
EELAYER 29 0
EELAYER END
$Descr A4 11693 8268
encoding utf-8
Sheet 3 4
Title "unitrac"
Date ""
Rev "r0"
Comp "(C) 2019, Christian Vorobev Private Research"
Comment1 ""
Comment2 ""
Comment3 ""
Comment4 ""
$EndDescr
$Comp
L Inverter-rescue:MIC4609-Driver_FET U2
U 1 1 5D53D4F5
P 2450 3200
AR Path="/5D53D4F5" Ref="U2"  Part="1" 
AR Path="/5D532DE2/5D53D4F5" Ref="U2"  Part="1" 
F 0 "U2" H 2425 4065 50  0000 C CNN
F 1 "MIC4609" H 2425 3974 50  0000 C CNN
F 2 "Package_SO:SOIC-28W_7.5x17.9mm_P1.27mm" H 2450 3200 50  0001 C CNN
F 3 "" H 2450 3200 50  0001 C CNN
	1    2450 3200
	1    0    0    -1  
$EndComp
$Comp
L Device:Q_NMOS_GDSD Q1
U 1 1 5D53F158
P 4850 2450
F 0 "Q1" H 5138 2496 50  0000 L CNN
F 1 "Q_NMOS_GDSD" H 5138 2405 50  0000 L CNN
F 2 "Package_TO_SOT_THT:TO-220-3_Horizontal_TabDown" H 5050 2550 50  0001 C CNN
F 3 "~" H 4850 2450 50  0001 C CNN
	1    4850 2450
	1    0    0    -1  
$EndComp
$Comp
L Device:Q_NMOS_GDSD Q2
U 1 1 5D54103A
P 4850 3800
F 0 "Q2" H 5138 3846 50  0000 L CNN
F 1 "Q_NMOS_GDSD" H 5138 3755 50  0000 L CNN
F 2 "Package_TO_SOT_THT:TO-220-3_Horizontal_TabDown" H 5050 3900 50  0001 C CNN
F 3 "~" H 4850 3800 50  0001 C CNN
	1    4850 3800
	1    0    0    -1  
$EndComp
$Comp
L Device:Q_NMOS_GDSD Q3
U 1 1 5D5422E4
P 6350 2450
F 0 "Q3" H 6638 2496 50  0000 L CNN
F 1 "Q_NMOS_GDSD" H 6638 2405 50  0000 L CNN
F 2 "Package_TO_SOT_THT:TO-220-3_Horizontal_TabDown" H 6550 2550 50  0001 C CNN
F 3 "~" H 6350 2450 50  0001 C CNN
	1    6350 2450
	1    0    0    -1  
$EndComp
$Comp
L Device:Q_NMOS_GDSD Q4
U 1 1 5D54313F
P 6350 3800
F 0 "Q4" H 6638 3846 50  0000 L CNN
F 1 "Q_NMOS_GDSD" H 6638 3755 50  0000 L CNN
F 2 "Package_TO_SOT_THT:TO-220-3_Horizontal_TabDown" H 6550 3900 50  0001 C CNN
F 3 "~" H 6350 3800 50  0001 C CNN
	1    6350 3800
	1    0    0    -1  
$EndComp
$Comp
L Device:Q_NMOS_GDSD Q5
U 1 1 5D5447AF
P 7800 2450
F 0 "Q5" H 8088 2496 50  0000 L CNN
F 1 "Q_NMOS_GDSD" H 8088 2405 50  0000 L CNN
F 2 "Package_TO_SOT_THT:TO-220-3_Horizontal_TabDown" H 8000 2550 50  0001 C CNN
F 3 "~" H 7800 2450 50  0001 C CNN
	1    7800 2450
	1    0    0    -1  
$EndComp
$Comp
L Device:Q_NMOS_GDSD Q6
U 1 1 5D545607
P 7800 3800
F 0 "Q6" H 8088 3846 50  0000 L CNN
F 1 "Q_NMOS_GDSD" H 8088 3755 50  0000 L CNN
F 2 "Package_TO_SOT_THT:TO-220-3_Horizontal_TabDown" H 8000 3900 50  0001 C CNN
F 3 "~" H 7800 3800 50  0001 C CNN
	1    7800 3800
	1    0    0    -1  
$EndComp
Wire Wire Line
	5050 3600 5050 3500
Wire Wire Line
	5050 3500 4950 3500
Connection ~ 4950 3500
Wire Wire Line
	4950 3500 4950 3600
Wire Wire Line
	6450 3600 6450 3500
Wire Wire Line
	6550 3600 6550 3500
Wire Wire Line
	6550 3500 6450 3500
Connection ~ 6450 3500
Wire Wire Line
	7900 3600 7900 3500
Wire Wire Line
	8000 3600 8000 3500
Wire Wire Line
	8000 3500 7900 3500
Connection ~ 7900 3500
Wire Wire Line
	4950 2650 4950 2700
Wire Wire Line
	6450 2650 6450 2850
Wire Wire Line
	4650 2450 4600 2450
Wire Wire Line
	2900 2800 3350 2800
Connection ~ 4950 2800
Wire Wire Line
	6100 3100 6100 2850
Wire Wire Line
	6100 2450 6150 2450
Wire Wire Line
	6450 3200 3550 3200
Connection ~ 6450 3200
Wire Wire Line
	6450 3200 6450 3500
Wire Wire Line
	7600 2450 7600 2850
Wire Wire Line
	2900 3800 4450 3800
Wire Wire Line
	2900 3900 3050 3900
Wire Wire Line
	3050 3900 3050 4100
Wire Wire Line
	3050 4100 6050 4100
Wire Wire Line
	6050 3800 6150 3800
Wire Wire Line
	7600 3800 7500 3800
Wire Wire Line
	7500 4200 1850 4200
Wire Wire Line
	1850 4200 1850 3900
Wire Wire Line
	1850 3900 1950 3900
$Comp
L Device:C_Small C6
U 1 1 5D555A23
P 3550 3100
F 0 "C6" H 3458 3054 50  0000 R CNN
F 1 "2u" H 3458 3145 50  0000 R CNN
F 2 "Capacitor_SMD:C_0603_1608Metric" H 3550 3100 50  0001 C CNN
F 3 "~" H 3550 3100 50  0001 C CNN
	1    3550 3100
	-1   0    0    1   
$EndComp
Connection ~ 3550 3200
Wire Wire Line
	3550 3200 2900 3200
$Comp
L Device:C_Small C5
U 1 1 5D557819
P 3350 2700
F 0 "C5" H 3442 2746 50  0000 L CNN
F 1 "2u" H 3442 2655 50  0000 L CNN
F 2 "Capacitor_SMD:C_0603_1608Metric" H 3350 2700 50  0001 C CNN
F 3 "~" H 3350 2700 50  0001 C CNN
	1    3350 2700
	1    0    0    -1  
$EndComp
Connection ~ 3350 2800
Wire Wire Line
	3350 2800 4950 2800
Wire Wire Line
	7900 3400 4750 3400
Wire Wire Line
	4750 3400 4750 3600
Connection ~ 7900 3400
Wire Wire Line
	7900 3400 7900 3500
Wire Wire Line
	2900 3600 3750 3600
Wire Wire Line
	7600 3300 4650 3300
$Comp
L Device:C_Small C8
U 1 1 5D55C70C
P 3750 3500
F 0 "C8" H 3842 3546 50  0000 L CNN
F 1 "2u" H 3842 3455 50  0000 L CNN
F 2 "Capacitor_SMD:C_0603_1608Metric" H 3750 3500 50  0001 C CNN
F 3 "~" H 3750 3500 50  0001 C CNN
	1    3750 3500
	1    0    0    -1  
$EndComp
Connection ~ 3750 3600
Wire Wire Line
	3750 3600 4750 3600
Wire Wire Line
	4600 2900 3000 2900
Wire Wire Line
	3000 2900 3000 2700
Wire Wire Line
	3000 2700 2900 2700
Wire Wire Line
	4600 2450 4600 2700
Wire Wire Line
	6100 3100 4550 3100
Wire Wire Line
	4550 3100 4550 3300
Wire Wire Line
	4550 3300 3000 3300
Wire Wire Line
	3000 3300 3000 3100
Wire Wire Line
	3000 3100 2900 3100
Wire Wire Line
	4650 3700 3000 3700
Wire Wire Line
	3000 3700 3000 3500
Wire Wire Line
	3000 3500 2900 3500
Wire Wire Line
	4650 3300 4650 3700
Wire Wire Line
	2900 3000 3550 3000
Wire Wire Line
	2900 2600 3350 2600
Wire Wire Line
	2900 3400 3750 3400
$Comp
L Device:D_Small D3
U 1 1 5D56ED0B
P 3750 2650
F 0 "D3" H 3750 2445 50  0000 C CNN
F 1 "1A FR" H 3750 2536 50  0000 C CNN
F 2 "Diode_SMD:DO-214AC" V 3750 2650 50  0001 C CNN
F 3 "~" V 3750 2650 50  0001 C CNN
	1    3750 2650
	0    -1   -1   0   
$EndComp
$Comp
L Device:D_Small D2
U 1 1 5D57033C
P 3550 2450
F 0 "D2" H 3550 2245 50  0000 C CNN
F 1 "1A FR" H 3550 2336 50  0000 C CNN
F 2 "Diode_SMD:DO-214AC" V 3550 2450 50  0001 C CNN
F 3 "~" V 3550 2450 50  0001 C CNN
	1    3550 2450
	0    -1   -1   0   
$EndComp
$Comp
L Device:D_Small D1
U 1 1 5D570BF7
P 3350 2250
F 0 "D1" H 3350 2045 50  0000 C CNN
F 1 "1A FR" H 3350 2136 50  0000 C CNN
F 2 "Diode_SMD:DO-214AC" V 3350 2250 50  0001 C CNN
F 3 "~" V 3350 2250 50  0001 C CNN
	1    3350 2250
	0    -1   -1   0   
$EndComp
Wire Wire Line
	1950 2600 1800 2600
Wire Wire Line
	4950 2250 4950 2150
Wire Wire Line
	5050 2250 5050 2150
Wire Wire Line
	5050 2150 4950 2150
Connection ~ 4950 2150
Wire Wire Line
	6450 2250 6450 2150
Wire Wire Line
	6550 2250 6550 2150
Wire Wire Line
	6550 2150 6450 2150
Connection ~ 6450 2150
Wire Wire Line
	7900 2250 7900 2150
Wire Wire Line
	8000 2250 8000 2150
Wire Wire Line
	8000 2150 7900 2150
Connection ~ 7900 2150
Text HLabel 1700 2700 0    50   Input ~ 0
TRAC_AHI
Text HLabel 1700 2800 0    50   Input ~ 0
TRAC_BHI
Text HLabel 1700 2900 0    50   Input ~ 0
TRAC_CHI
Text HLabel 1700 3000 0    50   Input ~ 0
TRAC_ALI
Text HLabel 1700 3100 0    50   Input ~ 0
TRAC_BLI
Text HLabel 1700 3200 0    50   Input ~ 0
TRAC_CLI
Text HLabel 1700 3300 0    50   Input ~ 0
TRAC_FAULT
Text HLabel 1700 3500 0    50   Input ~ 0
TRAC_EN
Text HLabel 1500 1100 0    50   Input ~ 0
TRAC_GDRV_VDD
Wire Wire Line
	1800 1100 1500 1100
Wire Wire Line
	1700 2700 1950 2700
Wire Wire Line
	1950 2800 1700 2800
Wire Wire Line
	1700 2900 1950 2900
Wire Wire Line
	1950 3000 1700 3000
Wire Wire Line
	1700 3100 1950 3100
Wire Wire Line
	1950 3200 1700 3200
Wire Wire Line
	1700 3300 1950 3300
Wire Wire Line
	1950 3500 1700 3500
Connection ~ 4950 4900
Connection ~ 6450 4900
Wire Wire Line
	6450 4900 7900 4900
Wire Wire Line
	6450 4000 6450 4100
Wire Wire Line
	1950 3800 1750 3800
Wire Wire Line
	1750 3800 1750 4300
$Comp
L Device:C_Small C9
U 1 1 5D57967A
P 4250 4600
F 0 "C9" V 4021 4600 50  0000 C CNN
F 1 "1u" V 4112 4600 50  0000 C CNN
F 2 "Capacitor_SMD:C_0603_1608Metric" H 4250 4600 50  0001 C CNN
F 3 "~" H 4250 4600 50  0001 C CNN
	1    4250 4600
	0    1    1    0   
$EndComp
Text HLabel 6600 750  2    50   Input ~ 0
TRAC_POWER_POS
Wire Wire Line
	6450 750  6600 750 
Wire Wire Line
	6450 750  6450 1000
Wire Wire Line
	7900 1000 7900 2150
Connection ~ 6450 1000
Wire Wire Line
	6450 1000 6450 2150
Wire Wire Line
	6450 1000 4950 1000
Wire Wire Line
	4950 1000 4950 2150
Wire Wire Line
	7900 2650 7900 2850
$Comp
L Device:Q_NMOS_GDSD Q7
U 1 1 5D5F3C05
P 9850 2450
F 0 "Q7" H 10138 2496 50  0000 L CNN
F 1 "Q_NMOS_GDSD" H 10138 2405 50  0000 L CNN
F 2 "Package_TO_SOT_THT:TO-220-3_Horizontal_TabDown" H 10050 2550 50  0001 C CNN
F 3 "~" H 9850 2450 50  0001 C CNN
	1    9850 2450
	1    0    0    -1  
$EndComp
Wire Wire Line
	9950 2650 9950 2850
Connection ~ 7900 4900
Wire Wire Line
	9950 2250 9950 2150
Wire Wire Line
	6450 1000 7900 1000
Connection ~ 7900 1000
Wire Wire Line
	7900 1000 9950 1000
Wire Wire Line
	10050 2250 10050 2150
Wire Wire Line
	10050 2150 9950 2150
Connection ~ 9950 2150
Wire Wire Line
	9950 2150 9950 1000
$Comp
L Driver_FET:FAN7371 U6
U 1 1 5D60CBD6
P 9050 2000
F 0 "U6" H 9050 2567 50  0000 C CNN
F 1 "FAN7371" H 9050 2476 50  0000 C CNN
F 2 "Package_SO:SOIC-8_3.9x4.9mm_P1.27mm" H 9050 1550 50  0001 C CNN
F 3 "https://www.fairchildsemi.com/datasheets/FA/FAN7371.pdf" H 9050 1900 50  0001 C CNN
	1    9050 2000
	1    0    0    -1  
$EndComp
$Comp
L Device:D_Small D4
U 1 1 5D60FC3D
P 9250 1300
F 0 "D4" H 9250 1095 50  0000 C CNN
F 1 "D_Small" H 9250 1186 50  0000 C CNN
F 2 "Diode_SMD:DO-214AC" V 9250 1300 50  0001 C CNN
F 3 "~" V 9250 1300 50  0001 C CNN
	1    9250 1300
	-1   0    0    1   
$EndComp
$Comp
L Device:C_Small C16
U 1 1 5D61BD66
P 9550 1900
F 0 "C16" H 9642 1946 50  0000 L CNN
F 1 "2u" H 9642 1855 50  0000 L CNN
F 2 "Capacitor_SMD:C_0603_1608Metric" H 9550 1900 50  0001 C CNN
F 3 "~" H 9550 1900 50  0001 C CNN
	1    9550 1900
	1    0    0    -1  
$EndComp
Wire Wire Line
	9550 1700 9550 1800
Wire Wire Line
	9550 2000 9550 2200
Wire Wire Line
	9550 2200 9350 2200
Wire Wire Line
	9350 2100 9450 2100
Wire Wire Line
	9450 2100 9450 2450
Wire Wire Line
	9450 2450 9650 2450
Text HLabel 8600 1100 0    50   Input ~ 0
TRAC_GDRV_VDD
Wire Wire Line
	8700 1700 8750 1700
Wire Wire Line
	8600 1850 8650 1850
Wire Wire Line
	8650 1850 8650 2100
Wire Wire Line
	8650 2100 8750 2100
Wire Wire Line
	8750 2300 8700 2300
Wire Wire Line
	9950 3100 10050 3100
Wire Wire Line
	9550 2200 9550 2850
Wire Wire Line
	9550 2850 9650 2850
Connection ~ 9550 2200
$Comp
L Device:R_Small R9
U 1 1 5D6A17CE
P 9650 2650
F 0 "R9" H 9709 2696 50  0000 L CNN
F 1 "47k" H 9709 2605 50  0000 L CNN
F 2 "Resistor_SMD:R_0603_1608Metric" H 9650 2650 50  0001 C CNN
F 3 "~" H 9650 2650 50  0001 C CNN
	1    9650 2650
	1    0    0    -1  
$EndComp
Wire Wire Line
	9650 2550 9650 2450
Connection ~ 9650 2450
Wire Wire Line
	9650 2750 9650 2850
Connection ~ 9650 2850
Wire Wire Line
	9650 2850 9950 2850
$Comp
L Device:R_Small R2
U 1 1 5D6B1A2F
P 4600 4000
F 0 "R2" V 4796 4000 50  0000 C CNN
F 1 "47k" V 4705 4000 50  0000 C CNN
F 2 "Resistor_SMD:R_0603_1608Metric" H 4600 4000 50  0001 C CNN
F 3 "~" H 4600 4000 50  0001 C CNN
	1    4600 4000
	0    -1   -1   0   
$EndComp
$Comp
L Device:R_Small R17
U 1 1 5D6B4179
P 7700 4200
F 0 "R17" V 7896 4200 50  0000 C CNN
F 1 "47k" V 7805 4200 50  0000 C CNN
F 2 "Resistor_SMD:R_0603_1608Metric" H 7700 4200 50  0001 C CNN
F 3 "~" H 7700 4200 50  0001 C CNN
	1    7700 4200
	0    -1   -1   0   
$EndComp
$Comp
L Device:R_Small R6
U 1 1 5D6B55E8
P 6250 4100
F 0 "R6" V 6054 4100 50  0000 C CNN
F 1 "47k" V 6145 4100 50  0000 C CNN
F 2 "Resistor_SMD:R_0603_1608Metric" H 6250 4100 50  0001 C CNN
F 3 "~" H 6250 4100 50  0001 C CNN
	1    6250 4100
	0    1    1    0   
$EndComp
$Comp
L Device:R_Small R8
U 1 1 5D6B5C18
P 7750 2850
F 0 "R8" V 7554 2850 50  0000 C CNN
F 1 "47k" V 7645 2850 50  0000 C CNN
F 2 "Resistor_SMD:R_0603_1608Metric" H 7750 2850 50  0001 C CNN
F 3 "~" H 7750 2850 50  0001 C CNN
	1    7750 2850
	0    1    1    0   
$EndComp
$Comp
L Device:R_Small R5
U 1 1 5D6B64A4
P 6250 2850
F 0 "R5" V 6054 2850 50  0000 C CNN
F 1 "47k" V 6145 2850 50  0000 C CNN
F 2 "Resistor_SMD:R_0603_1608Metric" H 6250 2850 50  0001 C CNN
F 3 "~" H 6250 2850 50  0001 C CNN
	1    6250 2850
	0    1    1    0   
$EndComp
$Comp
L Device:R_Small R3
U 1 1 5D6B6A8B
P 4800 2700
F 0 "R3" V 4604 2700 50  0000 C CNN
F 1 "47k" V 4695 2700 50  0000 C CNN
F 2 "Resistor_SMD:R_0603_1608Metric" H 4800 2700 50  0001 C CNN
F 3 "~" H 4800 2700 50  0001 C CNN
	1    4800 2700
	0    1    1    0   
$EndComp
Wire Wire Line
	4600 2700 4700 2700
Connection ~ 4600 2700
Wire Wire Line
	4600 2700 4600 2900
Wire Wire Line
	4900 2700 4950 2700
Connection ~ 4950 2700
Wire Wire Line
	4950 2700 4950 2800
Wire Wire Line
	4500 4000 4450 4000
Wire Wire Line
	4450 4000 4450 3800
Connection ~ 4450 3800
Wire Wire Line
	4450 3800 4650 3800
Wire Wire Line
	4700 4000 4950 4000
Connection ~ 4950 4000
Wire Wire Line
	6050 4100 6050 3800
Wire Wire Line
	6150 4100 6050 4100
Connection ~ 6050 4100
Wire Wire Line
	6350 4100 6450 4100
Connection ~ 6450 4100
Wire Wire Line
	7900 4000 7900 4200
Wire Wire Line
	7500 3800 7500 4200
Wire Wire Line
	7500 4200 7600 4200
Connection ~ 7500 4200
Wire Wire Line
	7800 4200 7900 4200
Connection ~ 7900 4200
Wire Wire Line
	7900 4200 7900 4900
Wire Wire Line
	7850 2850 7900 2850
Connection ~ 7900 2850
Wire Wire Line
	7650 2850 7600 2850
Connection ~ 7600 2850
Wire Wire Line
	7600 2850 7600 3300
Wire Wire Line
	6100 2850 6150 2850
Connection ~ 6100 2850
Wire Wire Line
	6100 2850 6100 2450
Wire Wire Line
	6350 2850 6450 2850
Connection ~ 6450 2850
Text HLabel 1650 4900 0    50   Input ~ 0
TRAC_POWER_NEG
Text HLabel 8600 1850 0    50   Input ~ 0
TRAC_CHOP_EN
Wire Wire Line
	1950 3700 1650 3700
Wire Wire Line
	1650 3700 1650 4500
Wire Wire Line
	9350 1700 9550 1700
Wire Wire Line
	9350 1300 9550 1300
Wire Wire Line
	9550 1300 9550 1700
Connection ~ 9550 1700
Wire Wire Line
	7900 2850 7900 3000
Wire Wire Line
	6450 2850 6450 3000
Wire Wire Line
	4950 2800 4950 3000
Wire Notes Line
	8150 550  10950 550 
Text Notes 8200 650  0    50   ~ 0
Electric Brake Chopper Circuit
Wire Notes Line
	4000 550  750  550 
Wire Notes Line
	750  550  750  5200
Wire Notes Line
	750  5200 4000 5200
Wire Notes Line
	4000 5200 4000 550 
Text Notes 800  650  0    50   ~ 0
Main Inverter Gate Driver Section
Wire Notes Line
	4050 4250 4050 5200
Wire Notes Line
	8150 550  8150 5200
Wire Notes Line
	8150 5200 10950 5200
Wire Notes Line
	10950 5200 10950 550 
Wire Notes Line
	750  5450 6700 5450
Wire Notes Line
	6700 5450 6700 7600
Wire Notes Line
	6700 7600 750  7600
Wire Notes Line
	750  7600 750  5450
$Comp
L Amplifier_Current:INA195 U5
U 1 1 5D85D371
P 5800 6800
F 0 "U5" H 5800 6319 50  0000 C CNN
F 1 "INA195" H 5800 6410 50  0000 C CNN
F 2 "Package_TO_SOT_SMD:SOT-23-5" H 5800 6800 50  0001 C CNN
F 3 "http://www.ti.com/lit/ds/symlink/ina193.pdf" H 5800 6800 50  0001 C CNN
	1    5800 6800
	-1   0    0    1   
$EndComp
$Comp
L Amplifier_Current:INA195 U3
U 1 1 5D861B68
P 3300 6800
F 0 "U3" H 3300 6319 50  0000 C CNN
F 1 "INA195" H 3300 6410 50  0000 C CNN
F 2 "Package_TO_SOT_SMD:SOT-23-5" H 3300 6800 50  0001 C CNN
F 3 "http://www.ti.com/lit/ds/symlink/ina193.pdf" H 3300 6800 50  0001 C CNN
	1    3300 6800
	-1   0    0    1   
$EndComp
Wire Wire Line
	3900 6900 3600 6900
Wire Wire Line
	4750 6900 5200 6900
Wire Wire Line
	6100 6900 6400 6900
Wire Wire Line
	6100 6700 6200 6700
$Comp
L Amplifier_Current:INA195 U1
U 1 1 5D8D7071
P 2050 6800
F 0 "U1" H 2050 6319 50  0000 C CNN
F 1 "INA195" H 2050 6410 50  0000 C CNN
F 2 "Package_TO_SOT_SMD:SOT-23-5" H 2050 6800 50  0001 C CNN
F 3 "http://www.ti.com/lit/ds/symlink/ina193.pdf" H 2050 6800 50  0001 C CNN
	1    2050 6800
	-1   0    0    1   
$EndComp
Wire Wire Line
	2500 6700 2350 6700
Wire Wire Line
	2350 6900 2700 6900
Wire Wire Line
	2700 6900 2700 6200
Wire Wire Line
	2150 7350 2150 7100
Wire Wire Line
	3400 7350 3400 7100
Connection ~ 2150 7350
Wire Wire Line
	3400 7350 3650 7350
Wire Wire Line
	4550 7350 4550 7100
Connection ~ 3400 7350
Wire Wire Line
	4550 7350 4800 7350
Wire Wire Line
	5900 7350 5900 7100
Connection ~ 4550 7350
Text HLabel 1600 7150 0    50   Input ~ 0
TRAC_CSENSE_TOT
Text HLabel 2850 7050 0    50   Input ~ 0
TRAC_CSENSE_A
Text HLabel 4100 7050 0    50   Input ~ 0
TRAC_CSENSE_B
Text HLabel 5500 7050 0    50   Input ~ 0
TRAC_CSENSE_CHOP
Wire Wire Line
	4950 4900 6450 4900
Wire Wire Line
	4750 6700 5100 6700
Wire Wire Line
	3600 6700 3800 6700
Wire Wire Line
	6200 6200 6200 6700
Wire Wire Line
	3000 6800 2900 6800
Wire Wire Line
	1750 6800 1700 6800
Wire Wire Line
	1700 6800 1700 7150
Wire Wire Line
	1700 7150 1600 7150
Wire Wire Line
	5900 6500 5900 6450
Wire Wire Line
	5900 6450 4800 6450
Wire Wire Line
	2150 6500 2150 6450
Connection ~ 2150 6450
Wire Wire Line
	3400 6500 3400 6450
Connection ~ 3400 6450
Wire Wire Line
	4550 6500 4550 6450
Connection ~ 4550 6450
Wire Wire Line
	4550 6450 3650 6450
Text HLabel 1600 6450 0    50   Input ~ 0
TRAC_AVDD
Text HLabel 1600 7350 0    50   Input ~ 0
TRAC_AVSS
Wire Wire Line
	1600 6450 2150 6450
Wire Wire Line
	1600 7350 2150 7350
$Comp
L Device:C_Small C1
U 1 1 5D611AC4
P 1600 2250
F 0 "C1" V 1371 2250 50  0000 C CNN
F 1 "100u" V 1462 2250 50  0000 C CNN
F 2 "Capacitor_SMD:C_1206_3216Metric" H 1600 2250 50  0001 C CNN
F 3 "~" H 1600 2250 50  0001 C CNN
	1    1600 2250
	0    1    1    0   
$EndComp
Wire Wire Line
	1700 2250 1800 2250
Connection ~ 1800 2250
Wire Wire Line
	3350 2350 3350 2600
Connection ~ 3350 2600
Wire Wire Line
	3550 2550 3550 3000
Connection ~ 3550 3000
Wire Wire Line
	3750 2750 3750 3400
Connection ~ 3750 3400
Wire Wire Line
	3350 2150 3350 2050
Wire Wire Line
	3350 2050 3550 2050
Wire Wire Line
	3550 2050 3550 2350
Wire Wire Line
	3550 2050 3750 2050
Wire Wire Line
	3750 2050 3750 2550
Connection ~ 3550 2050
Wire Wire Line
	1800 1100 1800 2250
Wire Wire Line
	1800 2250 1800 2400
Wire Wire Line
	1800 2400 2100 2400
Wire Wire Line
	2100 2400 2100 2050
Wire Wire Line
	2100 2050 3350 2050
Connection ~ 1800 2400
Wire Wire Line
	1800 2400 1800 2500
Connection ~ 3350 2050
$Comp
L Device:C_Small C2
U 1 1 5D829B98
P 1600 2500
F 0 "C2" V 1371 2500 50  0000 C CNN
F 1 "100n" V 1462 2500 50  0000 C CNN
F 2 "Capacitor_SMD:C_0402_1005Metric" H 1600 2500 50  0001 C CNN
F 3 "~" H 1600 2500 50  0001 C CNN
	1    1600 2500
	0    1    1    0   
$EndComp
Wire Wire Line
	1700 2500 1800 2500
Connection ~ 1800 2500
Wire Wire Line
	1800 2500 1800 2600
Wire Wire Line
	2150 7350 2400 7350
Wire Wire Line
	3400 6450 2400 6450
Wire Wire Line
	2850 7050 2900 7050
Wire Wire Line
	2900 7050 2900 6800
$Comp
L Amplifier_Current:INA195 U4
U 1 1 5D860D78
P 4450 6800
F 0 "U4" H 4450 6319 50  0000 C CNN
F 1 "INA195" H 4450 6410 50  0000 C CNN
F 2 "Package_TO_SOT_SMD:SOT-23-5" H 4450 6800 50  0001 C CNN
F 3 "http://www.ti.com/lit/ds/symlink/ina193.pdf" H 4450 6800 50  0001 C CNN
	1    4450 6800
	-1   0    0    1   
$EndComp
Wire Wire Line
	4150 6800 4100 6800
Wire Wire Line
	4100 6800 4100 7050
Wire Wire Line
	5500 6800 5500 7050
$Comp
L Device:C_Small C3
U 1 1 5D8CB8C8
P 2400 7250
F 0 "C3" H 2492 7296 50  0000 L CNN
F 1 "100n" H 2492 7205 50  0000 L CNN
F 2 "Capacitor_SMD:C_0402_1005Metric" H 2400 7250 50  0001 C CNN
F 3 "~" H 2400 7250 50  0001 C CNN
	1    2400 7250
	1    0    0    -1  
$EndComp
Connection ~ 2400 7350
Wire Wire Line
	2400 7350 3400 7350
$Comp
L Device:C_Small C7
U 1 1 5D8CC3F3
P 3650 7250
F 0 "C7" H 3742 7296 50  0000 L CNN
F 1 "100n" H 3742 7205 50  0000 L CNN
F 2 "Capacitor_SMD:C_0402_1005Metric" H 3650 7250 50  0001 C CNN
F 3 "~" H 3650 7250 50  0001 C CNN
	1    3650 7250
	1    0    0    -1  
$EndComp
Connection ~ 3650 7350
Wire Wire Line
	3650 7350 4550 7350
$Comp
L Device:C_Small C11
U 1 1 5D8CCAC9
P 4800 7250
F 0 "C11" H 4892 7296 50  0000 L CNN
F 1 "100n" H 4892 7205 50  0000 L CNN
F 2 "Capacitor_SMD:C_0402_1005Metric" H 4800 7250 50  0001 C CNN
F 3 "~" H 4800 7250 50  0001 C CNN
	1    4800 7250
	1    0    0    -1  
$EndComp
Connection ~ 4800 7350
Wire Wire Line
	4800 7350 5900 7350
$Comp
L Device:C_Small C13
U 1 1 5D8CD491
P 6150 7250
F 0 "C13" H 6242 7296 50  0000 L CNN
F 1 "100n" H 6242 7205 50  0000 L CNN
F 2 "Capacitor_SMD:C_0402_1005Metric" H 6150 7250 50  0001 C CNN
F 3 "~" H 6150 7250 50  0001 C CNN
	1    6150 7250
	1    0    0    -1  
$EndComp
Wire Wire Line
	5900 7350 6150 7350
Connection ~ 5900 7350
Wire Wire Line
	6150 7150 6150 6450
Wire Wire Line
	6150 6450 5900 6450
Connection ~ 5900 6450
Wire Wire Line
	4800 7150 4800 6450
Connection ~ 4800 6450
Wire Wire Line
	4800 6450 4550 6450
Wire Wire Line
	3650 7150 3650 6450
Connection ~ 3650 6450
Wire Wire Line
	3650 6450 3400 6450
Wire Wire Line
	2400 7150 2400 6450
Connection ~ 2400 6450
Wire Wire Line
	2400 6450 2150 6450
$Comp
L Device:C_Small C15
U 1 1 5D93EA80
P 8600 1600
F 0 "C15" V 8371 1600 50  0000 C CNN
F 1 "100n" V 8462 1600 50  0000 C CNN
F 2 "Capacitor_SMD:C_0402_1005Metric" H 8600 1600 50  0001 C CNN
F 3 "~" H 8600 1600 50  0001 C CNN
	1    8600 1600
	0    1    1    0   
$EndComp
$Comp
L Device:C_Small C14
U 1 1 5D9400D5
P 8600 1300
F 0 "C14" V 8371 1300 50  0000 C CNN
F 1 "100u" V 8462 1300 50  0000 C CNN
F 2 "Capacitor_SMD:C_1206_3216Metric" H 8600 1300 50  0001 C CNN
F 3 "~" H 8600 1300 50  0001 C CNN
	1    8600 1300
	0    1    1    0   
$EndComp
Wire Wire Line
	8700 1700 8700 1600
Wire Wire Line
	9150 1300 8900 1300
Wire Wire Line
	8900 1300 8900 1450
Wire Wire Line
	8900 1450 8700 1450
Wire Wire Line
	8700 1450 8700 1600
Connection ~ 8700 1600
Wire Wire Line
	8700 1450 8700 1300
Connection ~ 8700 1450
Wire Wire Line
	8700 1300 8700 1100
Wire Wire Line
	8700 1100 8600 1100
Connection ~ 8700 1300
Wire Wire Line
	8500 1300 8500 1600
Wire Wire Line
	8700 2300 8500 2300
Wire Wire Line
	8500 2300 8500 1600
Connection ~ 8700 2300
Connection ~ 8500 1600
Text Notes 2150 7450 0    50   ~ 0
Analog ground, quite delicate.
$Comp
L Device:C_Small C10
U 1 1 5D9D11EC
P 5200 4550
F 0 "C10" H 5108 4504 50  0000 R CNN
F 1 "1u" H 5108 4595 50  0000 R CNN
F 2 "Capacitor_SMD:C_0603_1608Metric" H 5200 4550 50  0001 C CNN
F 3 "~" H 5200 4550 50  0001 C CNN
	1    5200 4550
	-1   0    0    1   
$EndComp
$Comp
L Device:C_Small C12
U 1 1 5D9D1EC6
P 6750 4550
F 0 "C12" H 6842 4596 50  0000 L CNN
F 1 "1u" H 6842 4505 50  0000 L CNN
F 2 "Capacitor_SMD:C_0603_1608Metric" H 6750 4550 50  0001 C CNN
F 3 "~" H 6750 4550 50  0001 C CNN
	1    6750 4550
	1    0    0    -1  
$EndComp
$Comp
L Device:C_Small C17
U 1 1 5D9D272D
P 10200 4550
F 0 "C17" H 10292 4596 50  0000 L CNN
F 1 "1u" H 10292 4505 50  0000 L CNN
F 2 "Capacitor_SMD:C_0603_1608Metric" H 10200 4550 50  0001 C CNN
F 3 "~" H 10200 4550 50  0001 C CNN
	1    10200 4550
	1    0    0    -1  
$EndComp
$Comp
L Connector_Generic:Conn_01x01 J3
U 1 1 5D5BF15F
P 8100 3000
F 0 "J3" H 8180 3042 50  0000 L CNN
F 1 "Conn_01x01" H 8180 2951 50  0000 L CNN
F 2 "TestPoint:TestPoint_Pad_4.0x4.0mm" H 8100 3000 50  0001 C CNN
F 3 "~" H 8100 3000 50  0001 C CNN
	1    8100 3000
	1    0    0    -1  
$EndComp
$Comp
L Connector_Generic:Conn_01x01 J2
U 1 1 5D5BFD7E
P 6650 3000
F 0 "J2" H 6730 3042 50  0000 L CNN
F 1 "Conn_01x01" H 6730 2951 50  0000 L CNN
F 2 "TestPoint:TestPoint_Pad_4.0x4.0mm" H 6650 3000 50  0001 C CNN
F 3 "~" H 6650 3000 50  0001 C CNN
	1    6650 3000
	1    0    0    -1  
$EndComp
Connection ~ 4950 3000
Wire Wire Line
	4950 3000 4950 3500
Connection ~ 6450 3000
$Comp
L Connector_Generic:Conn_01x01 J4
U 1 1 5D5C0DC2
P 10250 2950
F 0 "J4" H 10330 2992 50  0000 L CNN
F 1 "Conn_01x01" H 10330 2901 50  0000 L CNN
F 2 "TestPoint:TestPoint_Pad_4.0x4.0mm" H 10250 2950 50  0001 C CNN
F 3 "~" H 10250 2950 50  0001 C CNN
	1    10250 2950
	1    0    0    -1  
$EndComp
$Comp
L Connector_Generic:Conn_01x01 J5
U 1 1 5D5C168B
P 10250 3100
F 0 "J5" H 10330 3142 50  0000 L CNN
F 1 "Conn_01x01" H 10330 3051 50  0000 L CNN
F 2 "TestPoint:TestPoint_Pad_4.0x4.0mm" H 10250 3100 50  0001 C CNN
F 3 "~" H 10250 3100 50  0001 C CNN
	1    10250 3100
	1    0    0    -1  
$EndComp
Wire Wire Line
	10050 2950 9950 2950
Wire Wire Line
	9950 2950 9950 2850
Wire Wire Line
	6450 3000 6450 3200
Connection ~ 9950 2850
Connection ~ 7900 3000
Wire Wire Line
	7900 3000 7900 3400
$Comp
L Device:R R1
U 1 1 5D64CE8C
P 4250 4900
F 0 "R1" V 4457 4900 50  0000 C CNN
F 1 "500u" V 4366 4900 50  0000 C CNN
F 2 "Resistor_SMD:R_2512_6332Metric" V 4180 4900 50  0001 C CNN
F 3 "~" H 4250 4900 50  0001 C CNN
	1    4250 4900
	0    -1   -1   0   
$EndComp
Wire Wire Line
	4400 4900 4500 4900
Wire Wire Line
	4500 4300 4500 4900
Connection ~ 4500 4900
$Comp
L Device:R R4
U 1 1 5D6E3596
P 4950 4550
F 0 "R4" H 5020 4596 50  0000 L CNN
F 1 "1m" H 5020 4505 50  0000 L CNN
F 2 "Resistor_SMD:R_2512_6332Metric" V 4880 4550 50  0001 C CNN
F 3 "~" H 4950 4550 50  0001 C CNN
	1    4950 4550
	1    0    0    -1  
$EndComp
$Comp
L Device:R R7
U 1 1 5D74AE68
P 6450 4550
F 0 "R7" H 6520 4596 50  0000 L CNN
F 1 "1m" H 6520 4505 50  0000 L CNN
F 2 "Resistor_SMD:R_2512_6332Metric" V 6380 4550 50  0001 C CNN
F 3 "~" H 6450 4550 50  0001 C CNN
	1    6450 4550
	1    0    0    -1  
$EndComp
$Comp
L Device:R R10
U 1 1 5D74B603
P 9950 4550
F 0 "R10" H 10020 4596 50  0000 L CNN
F 1 "1m" H 10020 4505 50  0000 L CNN
F 2 "Resistor_SMD:R_2512_6332Metric" V 9880 4550 50  0001 C CNN
F 3 "~" H 9950 4550 50  0001 C CNN
	1    9950 4550
	1    0    0    -1  
$EndComp
Text Notes 4750 5000 0    50   ~ 0
Shunt capacitors for better EMI performance
Wire Wire Line
	4350 4600 4400 4600
Wire Wire Line
	4400 4600 4400 4900
Connection ~ 4400 4900
Wire Wire Line
	4100 4900 4100 4600
Wire Wire Line
	4100 4600 4150 4600
Connection ~ 4100 4900
$Comp
L Device:Net-Tie_2 NT3
U 1 1 5DAD635C
P 3800 4600
F 0 "NT3" H 3800 4450 50  0001 C CNN
F 1 "Net-Tie_2" H 3800 4550 50  0001 C CNN
F 2 "NetTie:NetTie-2_SMD_Pad0.5mm" H 3800 4600 50  0001 C CNN
F 3 "~" H 3800 4600 50  0001 C CNN
	1    3800 4600
	1    0    0    -1  
$EndComp
Connection ~ 4100 4600
$Comp
L Device:Net-Tie_2 NT2
U 1 1 5DAD6EDA
P 3800 4400
F 0 "NT2" H 3800 4581 50  0001 C CNN
F 1 "Net-Tie_2" H 3800 4490 50  0001 C CNN
F 2 "NetTie:NetTie-2_SMD_Pad0.5mm" H 3800 4400 50  0001 C CNN
F 3 "~" H 3800 4400 50  0001 C CNN
	1    3800 4400
	1    0    0    -1  
$EndComp
Wire Wire Line
	3900 4600 4100 4600
Wire Wire Line
	3900 4400 4400 4400
Wire Wire Line
	4400 4400 4400 4600
Connection ~ 4400 4600
Wire Wire Line
	1750 4300 4500 4300
Wire Wire Line
	3700 4400 3500 4400
Wire Wire Line
	3500 4400 3500 6200
Wire Wire Line
	3500 6200 2700 6200
Wire Wire Line
	2500 6050 3700 6050
Wire Wire Line
	3700 6050 3700 4600
Wire Wire Line
	2500 6050 2500 6700
Wire Wire Line
	4950 4700 5200 4700
Wire Wire Line
	5200 4700 5200 4650
Connection ~ 4950 4700
Wire Wire Line
	4950 4400 5200 4400
Wire Wire Line
	5200 4400 5200 4450
Connection ~ 4950 4400
Wire Wire Line
	4950 4700 4950 4900
Wire Wire Line
	4950 4000 4950 4400
$Comp
L Device:Net-Tie_2 NT4
U 1 1 5DB9D6AA
P 5400 4400
F 0 "NT4" H 5400 4581 50  0001 C CNN
F 1 "Net-Tie_2" H 5400 4490 50  0001 C CNN
F 2 "NetTie:NetTie-2_SMD_Pad0.5mm" H 5400 4400 50  0001 C CNN
F 3 "~" H 5400 4400 50  0001 C CNN
	1    5400 4400
	1    0    0    -1  
$EndComp
$Comp
L Device:Net-Tie_2 NT5
U 1 1 5DB9DECF
P 5400 4700
F 0 "NT5" H 5400 4550 50  0001 C CNN
F 1 "Net-Tie_2" H 5400 4650 50  0001 C CNN
F 2 "NetTie:NetTie-2_SMD_Pad0.5mm" H 5400 4700 50  0001 C CNN
F 3 "~" H 5400 4700 50  0001 C CNN
	1    5400 4700
	1    0    0    -1  
$EndComp
Wire Wire Line
	5200 4700 5300 4700
Connection ~ 5200 4700
Wire Wire Line
	5200 4400 5300 4400
Connection ~ 5200 4400
Wire Wire Line
	5500 4700 5500 5600
Wire Wire Line
	5500 5600 3800 5600
Wire Wire Line
	3800 5600 3800 6700
Wire Wire Line
	3900 6900 3900 5700
Wire Wire Line
	3900 5700 5600 5700
Wire Wire Line
	5600 5700 5600 4400
Wire Wire Line
	5600 4400 5500 4400
Wire Wire Line
	6450 4700 6450 4900
Wire Wire Line
	6450 4100 6450 4400
$Comp
L Device:Net-Tie_2 NT7
U 1 1 5DC1FE07
P 6900 4700
F 0 "NT7" H 6900 4550 50  0001 C CNN
F 1 "Net-Tie_2" H 6900 4650 50  0001 C CNN
F 2 "NetTie:NetTie-2_SMD_Pad0.5mm" H 6900 4700 50  0001 C CNN
F 3 "~" H 6900 4700 50  0001 C CNN
	1    6900 4700
	1    0    0    -1  
$EndComp
$Comp
L Device:Net-Tie_2 NT6
U 1 1 5DC20473
P 6900 4400
F 0 "NT6" H 6900 4581 50  0001 C CNN
F 1 "Net-Tie_2" H 6900 4490 50  0001 C CNN
F 2 "NetTie:NetTie-2_SMD_Pad0.5mm" H 6900 4400 50  0001 C CNN
F 3 "~" H 6900 4400 50  0001 C CNN
	1    6900 4400
	1    0    0    -1  
$EndComp
Wire Wire Line
	6800 4400 6750 4400
Wire Wire Line
	6750 4400 6750 4450
Wire Wire Line
	6750 4650 6750 4700
Wire Wire Line
	6750 4700 6800 4700
Wire Wire Line
	6750 4400 6450 4400
Connection ~ 6750 4400
Connection ~ 6450 4400
Wire Wire Line
	6450 4700 6750 4700
Connection ~ 6450 4700
Connection ~ 6750 4700
Wire Wire Line
	7250 4400 7000 4400
Wire Wire Line
	5200 5900 5200 6900
Wire Wire Line
	5200 5900 7250 5900
Wire Wire Line
	7250 4400 7250 5900
Wire Wire Line
	7000 4700 7150 4700
Wire Wire Line
	7150 4700 7150 5800
Wire Wire Line
	7150 5800 5100 5800
Wire Wire Line
	5100 5800 5100 6700
Wire Wire Line
	9950 4700 9950 4750
Wire Wire Line
	9950 3100 9950 4350
Wire Wire Line
	10200 4750 9950 4750
Connection ~ 9950 4750
Wire Wire Line
	9950 4750 9950 4900
Wire Wire Line
	9950 4350 10200 4350
Wire Wire Line
	10200 4350 10200 4450
Connection ~ 9950 4350
Wire Wire Line
	9950 4350 9950 4400
$Comp
L Device:Net-Tie_2 NT9
U 1 1 5DD1DF1C
P 10350 4700
F 0 "NT9" H 10350 4550 50  0001 C CNN
F 1 "Net-Tie_2" H 10350 4650 50  0001 C CNN
F 2 "NetTie:NetTie-2_SMD_Pad0.5mm" H 10350 4700 50  0001 C CNN
F 3 "~" H 10350 4700 50  0001 C CNN
	1    10350 4700
	1    0    0    -1  
$EndComp
$Comp
L Device:Net-Tie_2 NT8
U 1 1 5DD1E4F5
P 10350 4350
F 0 "NT8" H 10350 4531 50  0001 C CNN
F 1 "Net-Tie_2" H 10350 4440 50  0001 C CNN
F 2 "NetTie:NetTie-2_SMD_Pad0.5mm" H 10350 4350 50  0001 C CNN
F 3 "~" H 10350 4350 50  0001 C CNN
	1    10350 4350
	1    0    0    -1  
$EndComp
Wire Wire Line
	10250 4350 10200 4350
Connection ~ 10200 4350
Wire Wire Line
	10200 4700 10250 4700
Wire Wire Line
	10200 4650 10200 4700
Connection ~ 10200 4700
Wire Wire Line
	10200 4700 10200 4750
Wire Wire Line
	10500 4700 10500 6200
Wire Wire Line
	10500 6200 6200 6200
Wire Wire Line
	10450 4700 10500 4700
Wire Wire Line
	10750 4350 10450 4350
Text Label 2700 6050 0    50   ~ 0
ANET_PTOT_NEG
Text Label 2700 6200 0    50   ~ 0
ANET_PTOT_POS
Text Label 4450 5600 0    50   ~ 0
ANET_PA_NEG
Text Label 4450 5700 0    50   ~ 0
ANET_PA_POS
Text Label 5500 5800 0    50   ~ 0
ANET_PB_NEG
Text Label 5500 5900 0    50   ~ 0
ANET_PB_POS
Text Label 7100 6200 0    50   ~ 0
ANET_PRSH_NEG
Text Label 7100 6300 0    50   ~ 0
ANET_PRSH_POS
Wire Wire Line
	6400 6300 10750 6300
Wire Wire Line
	6400 6300 6400 6900
Wire Wire Line
	10750 6300 10750 4350
Text HLabel 1450 4600 0    50   Input ~ 0
TRAC_GDRV_VSS
Wire Wire Line
	1450 4600 1650 4600
Connection ~ 1650 4500
Wire Wire Line
	1650 4500 1650 4600
Wire Wire Line
	950  2250 950  2500
Wire Wire Line
	950  2250 1500 2250
Wire Wire Line
	950  4500 1400 4500
Wire Wire Line
	950  2500 1500 2500
Connection ~ 950  2500
Wire Wire Line
	1950 3400 1750 3400
Wire Wire Line
	1750 3400 1750 3800
Connection ~ 1750 3800
Wire Notes Line
	7350 4250 7350 5200
Wire Notes Line
	4050 5200 7350 5200
Wire Notes Line
	4050 4250 7350 4250
Wire Wire Line
	4500 4900 4950 4900
Wire Wire Line
	1650 4900 4100 4900
Wire Wire Line
	1400 4150 1400 4500
Connection ~ 1400 4500
Wire Wire Line
	1400 4500 1650 4500
Wire Wire Line
	1400 3600 1950 3600
Wire Wire Line
	950  2500 950  4500
$Comp
L Device:C_Small C4
U 1 1 5D79D5B5
P 1400 4050
F 0 "C4" H 1492 4096 50  0000 L CNN
F 1 "88n" H 1492 4005 50  0000 L CNN
F 2 "Capacitor_SMD:C_0402_1005Metric" H 1400 4050 50  0001 C CNN
F 3 "~" H 1400 4050 50  0001 C CNN
	1    1400 4050
	1    0    0    -1  
$EndComp
Wire Wire Line
	1400 3600 1400 3950
Wire Wire Line
	7900 4900 9950 4900
Wire Wire Line
	8700 2300 8700 3600
Text HLabel 8800 3600 2    50   Input ~ 0
TRAC_GDRV_VSS
Wire Wire Line
	8700 3600 8800 3600
$Comp
L Connector_Generic:Conn_01x01 J1
U 1 1 5D5C0430
P 5150 3000
F 0 "J1" H 5230 3042 50  0000 L CNN
F 1 "Conn_01x01" H 5230 2951 50  0000 L CNN
F 2 "TestPoint:TestPoint_Pad_4.0x4.0mm" H 5150 3000 50  0001 C CNN
F 3 "~" H 5150 3000 50  0001 C CNN
	1    5150 3000
	1    0    0    -1  
$EndComp
$EndSCHEMATC
