M48
; DRILL file {KiCad (5.1.2-1)-1} date 2019 August 28, Wednesday 20:49:55
; FORMAT={-:-/ absolute / inch / decimal}
; #@! TF.CreationDate,2019-08-28T20:49:55+02:00
; #@! TF.GenerationSoftware,Kicad,Pcbnew,(5.1.2-1)-1
; #@! TF.FileFunction,NonPlated,1,2,NPTH
FMAT,2
INCH
T1C0.1378
%
G90
G05
T1
X3.935Y-6.4906
X6.061Y-6.4906
X3.835Y-4.9425
X4.998Y-6.4906
X4.898Y-4.9425
X2.872Y-6.4906
X2.772Y-4.9425
T0
M30
